<?xml version="1.0" standalone="no"?>
<!DOCTYPE svg PUBLIC "-//W3C//DTD SVG 1.1//EN" "http://www.w3.org/Graphics/SVG/1.1/DTD/svg11.dtd" >
<svg xmlns="http://www.w3.org/2000/svg">
<metadata>Generated by IcoMoon</metadata>
<defs>
<font id="icomoon" horiz-adv-x="1024">
<font-face units-per-em="1024" ascent="960" descent="-64" />
<missing-glyph horiz-adv-x="1024" />
<glyph unicode="&#x20;" horiz-adv-x="512" d="" />
<glyph unicode="&#xe900;" glyph-name="gots" d="M491.551 930.82c0-4.762 1.961-5.602 11.483-5.602h11.483l-0.84-28.569-1.12-28.849 15.125-1.681 1.681 57.696 10.643 0.84c8.122 0.84 10.363 1.961 10.363 6.441 0 5.042-2.241 5.322-29.409 5.322-27.448 0-29.409-0.28-29.409-5.602zM581.176 928.579c0-1.401-2.521-16.245-5.602-32.769-2.801-16.805-5.042-30.808-4.762-31.088s10.363-2.521 22.126-4.762c19.045-3.641 21.846-3.641 23.247 0.28 1.961 5.602 1.681 5.882-13.724 8.682-7.282 1.401-13.724 3.081-14.564 3.641-0.56 0.84-0.28 5.322 0.56 10.083 1.681 8.122 2.241 8.402 12.043 7.001 16.245-2.801 18.205-2.521 19.325 2.241 0.56 3.641-2.241 5.042-13.164 6.721-14.564 1.961-15.685 3.361-12.604 14.845 1.12 4.202 3.361 5.882 6.441 5.042 2.521-0.56 9.242-1.961 15.125-3.081 8.962-1.401 10.363-0.84 10.363 3.922 0 4.482-3.081 5.882-17.646 8.402-21.286 3.641-27.168 3.922-27.168 0.84zM383.159 922.135c-9.803-2.801-22.406-16.245-24.927-26.888-5.042-19.605 12.884-42.852 32.769-42.852 15.125 0 31.088 6.721 28.849 12.324-1.961 5.322-5.042 5.602-12.884 1.401-9.242-5.042-24.087-0.56-28.849 8.682-4.482 8.682-5.322 18.765-2.521 26.608 2.241 5.322 15.405 12.604 23.527 12.604 4.202 0 5.602 1.401 5.042 5.042-1.12 5.602-8.682 6.721-21.006 3.081zM659.6 911.492c0-3.081 1.12-8.402 2.521-12.043 7.282-20.445 7.282-20.726-12.884-34.17l-18.765-12.604 7.842-3.081c7.001-2.521 9.522-1.681 21.566 6.721 14.845 10.923 14.284 11.203 18.205-10.363 1.401-8.122 3.641-11.483 8.962-13.444 3.641-1.401 7.562-2.241 8.122-1.401 0.56 0.56-0.84 8.682-3.081 17.926-2.521 9.242-4.482 18.205-4.482 19.605 0 1.681 7.001 7.842 15.685 14.004s14.564 11.763 13.164 12.324c-8.122 4.762-12.604 3.922-22.406-3.361-5.882-4.482-11.483-8.402-12.604-8.402s-2.801 5.602-3.922 12.604c-1.401 10.363-3.361 13.724-9.803 17.085-7.562 3.922-8.122 3.641-8.122-1.401zM307.257 894.968c-2.521-1.961-0.28-9.803 9.803-33.609 11.763-27.728 14.004-31.088 19.045-29.689 3.081 1.12 6.161 2.241 6.721 2.801 1.401 1.12-6.441 21.566-17.085 45.373-7.562 16.805-11.203 19.605-18.485 15.125zM736.061 878.443c-1.12-2.801 0-5.882 3.081-7.562 13.164-7.842 13.164-7.562-1.401-32.489-12.604-21.566-13.164-24.087-8.962-27.168 2.521-1.961 5.602-3.641 7.001-3.641 1.681 0 25.768 38.651 28.289 45.653 0.28 1.401 5.322-0.28 10.923-3.641l10.083-5.882 1.961 5.882c1.12 3.361 1.401 6.441 0.84 6.721-2.801 2.801-46.493 26.888-48.174 26.888-1.12 0-2.801-2.241-3.641-4.762zM259.362 872.282c-3.081-1.961-1.401-6.721 9.242-24.087 7.562-11.763 12.884-21.846 12.324-22.406s-11.483 5.882-24.087 14.284l-23.247 15.405-19.045-11.763 17.085-27.168c20.445-33.049 19.605-32.209 25.768-27.728 4.762 3.641 4.202 5.042-9.242 26.888-7.842 12.604-12.604 22.126-10.643 21.006 1.681-1.12 12.324-8.122 23.527-15.685 11.203-7.282 21.846-13.444 23.807-13.444s7.001 2.241 11.203 5.042l7.562 5.042-17.366 28.569c-9.522 15.685-18.485 28.289-20.165 28.569-1.401 0-4.482-1.12-6.721-2.521zM804.402 823.828c-17.085-21.566-29.969-39.492-29.969-41.733 0-1.401 2.521-3.641 5.322-5.322 4.762-2.521 7.842 0.28 23.247 20.445 22.966 29.689 22.966 29.409 19.045 34.17-5.042 6.161-7.001 5.322-17.646-7.562zM466.343 811.504c-40.052-5.042-94.107-21.286-128.837-38.932-49.294-24.927-103.909-70.86-136.681-114.835-31.929-43.132-56.296-98.028-68.059-152.644-8.402-38.651-8.962-109.232-1.681-146.764 10.923-54.336 29.969-100.549 59.097-144.243 94.387-141.16 266.358-203.058 431.605-155.725 33.329 9.522 86.825 36.13 115.953 57.416 184.013 135.559 213.141 392.675 63.859 565.764-52.936 61.338-127.157 105.030-210.622 123.516-24.647 5.602-100.549 9.522-124.636 6.441zM457.099 630.572l45.653-45.653v-407.518h-131.638v275.88l-86.825-86.825-46.773 47.053-47.053 46.773 107.831 107.831c59.377 59.377 108.951 107.831 110.632 107.831 1.401 0 23.247-20.445 48.174-45.373zM724.018 568.114l107.831-107.831-47.053-46.773-46.773-47.053-86.825 86.825v-275.88h-131.638v407.518l45.373 45.373c25.207 25.207 46.773 45.653 48.454 45.653s51.255-48.454 110.632-107.831zM161.054 797.78l-6.721-7.001 13.724-33.609c13.724-33.609 13.724-33.609 19.325-28.289 4.762 5.042 5.042 6.721 1.961 13.164-3.081 7.001-2.521 8.402 7.001 18.205 10.083 10.363 10.643 10.643 18.765 6.441 7.842-4.202 8.682-4.202 14.004 1.401l5.882 5.602-32.209 15.685c-17.646 8.402-32.769 15.405-33.609 15.405s-4.482-3.081-8.122-7.001zM191.022 769.492c-9.803-8.962-11.483-8.682-15.685 3.922-2.241 5.602-4.482 12.043-5.322 14.004-0.84 2.521 4.202 1.12 13.444-3.641l14.845-7.562-7.282-6.721zM833.249 775.374l-23.807-23.807 16.245-15.965c15.125-15.405 15.965-15.965 20.726-11.203 4.762 5.042 4.762 5.322-1.961 11.203-15.685 13.444-15.685 13.444 5.602 35.010 17.366 17.926 19.045 20.445 15.125 24.367-2.521 2.241-5.322 4.202-6.161 4.202-1.12 0-12.884-10.643-25.768-23.807zM104.198 737.003c-15.965-21.566-17.646-35.85-5.602-50.135 13.724-16.245 31.369-19.325 47.894-8.682 7.842 5.042 21.286 27.448 19.325 32.209-0.84 1.961-6.721 7.282-13.164 11.763l-11.763 8.122-6.721-8.122c-4.762-6.161-5.602-8.962-3.361-11.763s3.922-2.801 6.721-0.56c2.521 1.961 5.322 1.961 9.242-0.28 7.282-3.641 7.282-5.882 0-15.125-7.842-9.803-21.286-9.803-33.049 0s-11.763 22.686-0.28 35.57c6.161 7.282 7.282 10.363 5.042 12.604-5.042 5.042-7.001 4.202-14.284-5.602zM882.824 726.080c-14.845-10.923-27.168-20.445-27.168-21.286s5.882-9.522 13.164-19.325c11.483-15.685 13.724-17.366 17.085-14.004 3.641 3.641 3.081 5.602-5.042 15.685l-9.242 11.763 6.721 5.322c3.641 2.801 7.562 5.322 8.682 5.322 0.84 0 5.602-5.042 10.083-11.203 7.001-9.803 8.682-10.643 11.763-7.001 2.801 3.361 2.241 5.882-3.922 13.724-8.962 11.763-8.962 13.164-1.12 18.205 5.602 3.361 6.721 2.801 15.965-7.842 7.842-9.242 10.923-10.923 13.444-8.402 2.801 2.801 1.12 6.441-6.721 17.646-5.602 7.842-11.763 15.965-13.444 17.926-2.521 2.801-8.682-0.56-30.249-16.525zM58.263 658.578c-3.361-3.641-8.962-12.884-12.884-20.726l-7.282-14.284 30.808-14.845c25.487-12.324 31.369-14.284 33.609-10.923 4.482 7.001 2.801 10.083-8.682 15.125-18.485 8.402-12.324 19.325 10.083 17.926 10.083-0.84 13.724 0.28 16.805 4.482 6.721 8.962 4.482 10.363-15.685 9.242-18.485-0.84-19.605-0.56-19.605 5.322 0 6.441-9.522 14.845-16.805 14.845-2.521 0-7.282-2.801-10.363-6.161zM76.469 639.534c1.12-11.763-3.081-15.405-13.164-11.203-10.083 3.922-10.363 4.762-4.202 13.444 5.882 8.682 16.245 7.282 17.366-2.241zM959.286 617.128c-3.361-3.361-5.602-9.242-5.602-15.125 0-12.884-4.482-24.087-9.522-24.087-5.882 0-12.884 10.923-12.884 20.165 0 7.842-6.161 10.923-9.803 4.762-3.361-5.322 1.401-21.846 8.682-30.528 5.322-6.161 9.522-8.402 16.245-8.402 12.604 0 18.485 7.282 18.485 22.686 0 6.721 1.12 14.004 2.521 15.965 4.482 7.001 12.604 2.241 17.085-9.803 3.081-8.682 5.322-11.203 8.122-9.522 5.882 3.922 1.12 22.126-8.122 31.649-9.242 9.242-17.366 10.083-25.207 2.241zM33.616 579.597c-25.487-11.203-26.608-47.614-1.681-60.217 29.969-15.405 58.537 4.762 52.376 36.971-2.241 11.483-8.682 17.926-23.247 23.247-13.164 4.482-16.805 4.762-27.448 0zM67.507 558.031c13.444-12.604 5.602-27.728-14.845-27.728-10.083 0-14.004 1.681-20.726 8.402-9.242 8.962-9.242 17.366 0 24.647 6.721 5.602 27.168 2.521 35.57-5.322zM997.098 544.306c1.12-6.161 1.12-11.203 0.56-11.203-1.681 0-38.091-7.282-48.454-9.803-4.762-1.12-5.602-2.801-4.482-8.402 1.401-8.402 1.401-8.402 32.489-1.681 17.926 3.922 24.647 4.482 25.487 2.241 0.56-1.961 1.681-6.721 2.521-10.923 1.961-8.122 3.641-9.242 9.522-5.602 2.801 1.961 2.521 6.441-0.84 23.247-6.721 33.89-6.721 33.329-12.884 33.329-5.322 0-5.602-1.12-3.922-11.203zM952.846 475.125c-3.641-3.361 2.521-14.284 9.522-16.805 7.562-2.801 8.122-4.202 8.122-17.646s-0.56-14.564-8.402-17.646c-6.441-2.521-8.402-4.762-8.402-10.923 0-4.202 0.56-7.842 1.12-7.842 0.84 0 16.525 6.441 35.29 14.284l33.89 14.284-0.84 10.083-0.84 9.803-34.17 11.763c-19.045 6.441-34.73 11.203-35.29 10.643zM1003.818 445.718c8.122-2.801 7.842-3.081-8.962-10.363l-13.164-5.602v11.203c0 10.643 0.28 10.923 7.842 9.242 4.202-1.12 10.643-3.081 14.284-4.482zM56.024 437.874c-0.84-1.681-0.84-8.402 0-15.405l1.961-12.324-28.849-0.84c-28.849-0.84-29.129-0.84-29.129-7.842 0-8.962 3.641-9.522 39.772-7.001l28.849 1.961v22.126c0 20.165-0.56 22.126-5.322 22.126-3.081 0-6.441-1.401-7.282-2.801zM952.566 382.699c-0.84-1.12-1.681-3.922-1.681-6.721 0-3.922 4.202-5.322 20.445-8.122 33.609-5.322 33.89-6.721 5.322-14.004-14.284-3.641-26.888-7.282-28.008-8.122-4.202-2.801-6.161-22.686-2.521-22.686 1.961-0.28 16.805-2.521 33.609-5.322 16.525-2.521 30.528-4.202 31.369-3.641 1.401 1.401 1.961 11.763 0.84 11.763-3.922 0-48.174 8.682-49.014 9.522-0.56 0.56 2.521 1.961 6.721 2.801 4.202 1.12 16.805 4.482 28.008 7.842 19.045 5.322 20.165 6.161 21.846 15.405 0.84 5.322 1.12 10.363 0.56 10.923-0.56 0.84-12.324 3.081-26.048 5.322s-28.289 4.762-32.209 5.602c-4.202 0.56-8.122 0.28-9.242-0.56zM37.818 353.85c-28.289-18.485-29.409-19.325-28.569-28.289 0.28-5.042 1.12-9.522 1.681-10.083 1.12-1.12 63.018-12.043 68.339-12.043 2.241 0 3.361 2.521 2.801 6.161-0.56 4.202-3.641 6.721-9.803 8.402-8.962 2.241-10.363 4.482-13.444 22.126-1.681 8.682-0.84 10.083 5.322 13.164 5.042 2.241 7.282 5.322 7.282 10.083 0 3.922-0.84 7.562-1.961 8.122-1.401 0.56-15.405-7.282-31.649-17.646zM49.021 337.887c0-2.801 0.84-7.842 1.681-11.203 1.681-5.602 0.84-5.882-10.643-4.482-19.605 2.521-21.006 4.762-7.282 12.884 14.284 8.682 16.245 8.962 16.245 2.801zM930.157 282.71c-7.562-19.605-8.402-30.528-3.361-40.332 8.962-17.085 39.212-24.647 52.095-13.164 6.441 5.602 19.605 31.929 19.605 38.932 0 1.961-12.324 8.122-28.569 14.284-15.965 5.882-30.249 11.203-31.929 11.763s-5.322-4.482-7.842-11.483zM983.933 260.022c0.56-0.56-0.84-4.762-3.361-9.242-6.441-12.604-17.646-15.125-32.769-7.562-10.643 5.602-14.564 15.125-10.643 26.328l2.801 8.122 21.566-8.402c11.763-4.482 21.846-8.682 22.406-9.242zM71.988 280.748c-3.361-1.401-7.562-5.322-9.242-8.962-2.241-5.322-4.482-6.161-12.604-5.322-12.324 1.401-17.926-3.361-17.926-14.845 0-7.562 8.682-33.329 12.324-36.971 1.12-1.401 58.537 21.566 61.618 24.367 3.361 3.361-15.685 40.052-22.126 42.293-3.081 0.84-8.402 0.84-12.043-0.56zM87.673 263.665c5.882-7.562 6.441-15.405 1.401-17.085-2.801-0.56-7.282-2.241-9.803-3.361-6.721-2.521-12.043 10.363-7.842 18.485 3.361 6.161 12.043 7.001 16.245 1.961zM62.745 245.458c1.681-3.922 2.801-7.282 2.521-7.562-0.56-0.28-4.482-2.241-8.962-3.922-6.721-3.081-8.682-3.081-10.363 0-3.922 6.161-2.801 15.685 2.241 18.485 6.441 3.641 10.643 1.681 14.564-7.001zM904.951 221.931c-3.641-5.602-3.641-6.721 1.681-13.724l5.602-7.842-7.282-12.324c-6.441-11.203-8.122-12.324-16.525-11.203-9.803 1.12-19.325-5.882-14.284-10.363 1.401-1.12 15.125-4.482 30.528-7.001 15.405-2.801 30.808-5.602 34.17-6.441 4.762-1.12 7.001 0.56 10.643 7.282 5.042 10.083 6.161 7.842-19.885 41.453-19.885 25.207-20.445 25.768-24.647 20.165zM930.717 179.641c4.762-6.441 8.682-12.043 8.122-12.324-0.56-0.84-28.008 4.762-29.409 5.882-1.12 0.84 8.962 18.205 10.643 18.205 0.84 0 5.602-5.322 10.643-11.763zM89.633 199.805c-12.324-8.122-18.205-17.085-18.205-28.289 0-11.763 9.242-27.168 19.605-32.769 15.405-7.842 44.252 4.202 50.695 21.286 4.482 11.483 0.28 25.768-10.083 36.13-7.562 7.562-11.483 9.242-21.286 9.242-7.562 0-15.685-2.241-20.726-5.602zM125.764 186.921c10.083-10.083 1.12-28.849-16.525-34.73-12.043-3.922-19.045-1.961-23.807 7.001-5.042 9.242-0.56 19.045 11.763 26.608 11.203 6.721 22.686 7.282 28.569 1.12zM854.536 146.869c-4.762-5.322-4.482-5.882 5.602-15.125 9.522-8.682 10.363-10.363 6.721-14.564-4.202-5.042-8.962-4.482-24.647 1.681-8.682 3.641-9.803 3.361-13.444-1.401-2.241-3.081-3.922-6.441-3.922-7.282 0-1.12 7.562-4.202 16.805-7.001 13.444-4.202 16.805-6.161 16.805-10.923 0-7.562 2.521-11.203 10.363-15.405 8.962-4.482 17.366-0.28 30.808 15.965l11.763 14.004-20.165 17.646c-11.203 9.522-22.686 19.885-26.048 22.686-5.602 5.042-5.882 5.042-10.643-0.28zM887.025 108.219c6.161-5.602 6.161-7.562 0.56-13.164-10.363-10.363-21.846-1.961-15.125 11.203 4.482 7.842 7.562 8.402 14.564 1.961zM158.253 145.19c-3.081-3.641-2.241-5.882 5.042-13.444 9.803-10.083 10.923-14.564 5.042-17.926-1.961-1.12-10.923-8.682-19.605-16.805-14.284-13.164-15.685-15.125-12.324-20.445 1.961-3.081 4.482-5.322 5.602-5.042 4.762 1.961 49.855 42.852 49.855 45.373 0 2.801-26.888 32.489-29.129 32.489-0.56 0-2.521-1.961-4.482-4.202zM790.677 81.611c-9.242-8.402-16.805-18.485-17.926-22.966-3.081-12.324 8.402-32.489 22.126-39.212 10.083-4.762 11.483-4.762 22.406-0.56 6.441 2.521 16.525 8.682 22.406 13.724l10.643 9.242-19.885 25.207c-10.923 13.724-21.006 25.768-22.126 27.168-1.12 1.12-8.962-4.482-17.646-12.604zM817.285 58.645c7.282-9.522 13.164-18.485 13.164-19.325 0-1.12-3.641-3.641-8.122-6.161-13.444-6.721-29.129 1.961-34.17 19.605-2.521 8.962 5.602 22.686 14.284 23.527 0.84 0 7.282-7.842 14.845-17.646zM204.186 83.012c-12.604-15.965-12.884-16.245-3.641-22.966 6.161-4.482 9.522-5.602 11.763-3.361 1.961 1.961 1.961 3.922-0.28 6.441-1.961 2.521-1.961 5.042 0.56 8.682 5.322 7.001 11.483 5.882 18.485-2.801 7.842-10.083 5.602-22.126-5.882-32.489-10.923-10.083-21.846-8.682-35.010 3.922-7.562 7.282-8.962 7.842-12.324 3.922-3.081-3.641-1.961-5.602 6.721-14.004 14.284-13.444 29.689-17.366 43.132-10.643 11.763 5.882 22.966 20.726 22.966 30.808 0 12.324-8.962 26.608-22.126 34.73-7.001 4.482-13.444 8.122-14.284 8.122-1.12 0-5.602-4.762-10.083-10.363zM291.571-1.012c-1.401-3.081-0.28-6.161 2.801-8.402 6.721-5.042 8.682-4.482 12.324 1.961 2.241 4.202 1.681 5.882-2.521 8.402-7.842 3.922-10.643 3.641-12.604-1.961zM715.055 1.788c-5.602-1.401-6.441-5.602-2.521-11.763 2.241-3.361 3.922-3.641 10.083-0.84s6.721 4.202 4.202 8.962c-3.081 5.602-3.361 5.882-11.763 3.641zM383.72-1.853c-12.043-4.762-19.045-16.245-20.445-32.209-1.12-14.845-0.84-15.965 8.962-25.207 7.001-6.441 14.004-10.083 22.406-11.203 19.605-3.081 21.846-1.681 26.048 15.125 2.241 8.122 3.641 15.405 3.081 15.685-0.56 0.56-5.602 1.681-11.203 2.801-8.682 1.681-10.643 1.12-10.643-2.521 0-2.521 1.401-4.482 2.801-4.482 4.482 0 3.081-14.004-1.401-15.685-7.001-2.801-20.445 4.482-23.807 12.884-4.762 11.483 0.84 26.888 11.203 32.209s15.125 5.322 25.768-0.28c7.001-3.641 8.962-3.922 10.923-0.56 3.922 5.882 3.081 7.001-8.682 11.763-12.043 4.762-26.048 5.602-35.010 1.681zM625.15-1.853c-25.487-7.562-27.168-33.89-2.801-37.811 15.405-2.521 23.247-6.161 23.247-11.203 0-4.762-17.085-13.444-23.807-12.043-3.641 0.84-4.202 0-4.202-6.441 0-5.042 24.647-1.12 33.329 5.042 14.564 10.923 8.122 34.45-9.242 34.45-10.363 0-21.286 5.042-21.286 9.522 0 5.322 8.682 10.083 17.926 10.083 5.322 0 7.282 1.401 7.282 5.602 0 6.161-6.441 7.001-20.445 2.801zM569.972-11.655c-2.241-0.56-12.604-1.961-22.966-2.801-16.245-1.681-19.045-2.521-19.045-7.282 0-4.202 1.961-5.322 10.923-5.322h10.923l1.961-22.966c2.521-30.808 3.081-33.049 11.763-33.049h7.001l-1.681 21.846c-1.12 11.763-2.521 24.927-3.361 29.129-1.401 7.001-0.84 7.562 9.242 8.402 8.402 0.56 10.643 1.961 10.643 6.441 0 5.602-5.882 7.562-15.405 5.602zM461.301-17.538c-12.884-8.962-18.205-30.249-11.763-47.053 5.602-14.564 28.289-22.406 45.933-15.685 22.966 8.682 24.647 54.056 2.521 64.139-9.803 4.482-29.409 3.641-36.691-1.401zM493.79-29.301c4.762-6.161 4.202-28.849-1.12-36.411-5.042-7.282-16.805-8.122-24.087-1.401-3.641 3.081-5.042 8.402-5.042 18.205 0 22.966 18.205 34.73 30.249 19.605z" />
<glyph unicode="&#xe901;" glyph-name="ofe" d="M971.713 722.546c-6.711-13.254-6.482-27.979-19.725-34.885-8.189-2.609-22.123-4.794-32.503-9.951-0.020-8.576 17.896-9.051 22.534-10.94 9.398-9.305-1.997-17.072-4.918-27.957-8.658-23.968 17.686 4.287 24.231 10.91 6.334 9.050 20.772 7.949 32.593 4.441 15.793-4.355 9.974 6.504 5.724 15.010-9.372 9.566 3.738 20.507 10.926 24.476 3.557 6.774 10.983 6.604 13.423 17.005-12.908 1.902-29.485-16.229-39.482-5.445-1.518 2.829-5.882 32.093-12.803 17.333zM586.326 721.478c-7.567-9.494-4.083-38.011-24.048-27.712-7.919 3.315-39.35 12.391-22.243-2.648 9.836-7.496 21.431-17.322 25.739-25.552 0.953-10.612-17.043-31.030 0.532-29.246 15.553 9.182 32.876 6.631 40.481-6.825 0.997-3.471 18.401-23.656 18.015-12.025-1.231 12.104-12.789 25.264-6.913 36.288 8.135 3.45 30.736 10.102 26.377 14.821-5.801 5.19-18.489 5.583-27.279 9.484-12.898-0.724-17.116 16.807-19.239 22.371-2.462 4.719-2.593 23.714-11.422 21.042zM388.753 720.569c-7.831-10.059-0.767-34.37-18.637-33.509-6.571 2.463-56.921 9.259-35.686-3.153 10.869-6.332 17.715-10.368 28.559-16.15 12.739-7.515 4.286-22.854 2.692-32.547-6.947-17.933 14.34-6.145 20.231-1.598 11.597 7.054 26.127 6.584 34.445-4.079 3.696-0.706 12.312-9.781 19.073-13.715 10.253-13.471 9.754 5.090 4.305 9.881-2.627 5.311-3.737 8.52-6.464 13.53-2.017 4.122-8.030 13.034 0.401 15.725 5.151 2.713 16.669 6.342 20.295 6.999 17.629 2.883 2.878 11.816-4.919 11.213-14.88 5.915-35.413 2.25-43.467 19.756-5.263 10.265-9.88 17.366-15.61 27.71l-2.794 0.683zM775.102 701.038c-7.023-14.615-1.504-40.697-23.737-38.626-13.132 2.74-29.371-1.203-16.27-8.89 6.88-8.472 17.354-10.035 21.972-21.022-0.172-8.988-11.038-21.895-4.815-31.181 10.751 3.846 19.214 17.274 24.889 18.184 10.937 2.918 17.512-8.084 23.812-8.268 14.348-12.988 10.462 8.219 4.655 16.367-7.87 7.26 0.495 19.788 4.664 22.333 7.493 3.567 17.832 10.891 18.499 13.958 0.211 8.636-27.638-2.242-35.878 4.162-4.594 4.235-8.003 19.208-10.26 25.378-1.060 4.529-1.884 11.327-7.529 7.606zM240.938 622.282c-3.288-8.285-6.824-23.053-10.895-30.938-5.148-6.344-26.471-7.783-33.893-9.343-13.187 2.423-35.774-10.854-10.939-11.932 9.958-4.367 33.409-3.116 30.447-17.827-3.063-10.239-9.015-17.964-11.046-29.592 10.021-2.226 15.5 8.644 23.552 10.397 0.605 3.76 9.422 3.321 13.745 9.772 10.819 5.237 21.497 0.118 29.919-3.953 5.684-3.559 14.901-7.017 19.613-10.969 12.905-2.955 0.86 13.824-1.616 18.689-0.573 5.191-10.604 11.363-3.827 19.834 6.674 1.197 19.563 14.926 18.31 11.187 5.725 3.72 22.744 15.544 6.185 13.262-15.143 2.801-34.521-7.828-47.565 3.601-2.82 9.555-13.542 22.38-14.193 23.176 0.216 3.741-4.627 7.404-7.796 4.64zM872.903 572.304c2.442 0.149-6.003-9.776-5.066-16.747-5.903-8.504-4.699-24.417-18.261-25.004-8.168-5.465-33.002-1.049-27.073-11.748 7.776-5.278 10.939-5.053 15.761-8.272 11.282-4.283 9.519-14.843 5.496-20.72-7.381-9.83-9.698-32.846 5.647-15.167 5.122 5.983 9.101 7.803 15.008 13.509 9.613 9.133 18.934 2.885 27.921 0.141 21.846-11.348 10.422 14.146 5.26 22.794-3.162 11.668 7.12 12.773 13.938 23.14 5.076 2.811 14.274 13.536 12.063 12.28 11.483 7.841-1.415 9.894-5.862 5.647-5.361-2.28-8.13-3.405-14.521-5.437-7.782-8.753-21.635-0.678-20.455 7.399-3.27 4.48-1.594 21.999-9.855 18.183zM619.892 517.095c-24.173-4.671-46.879-11.337-70.84-17.845-10.028-3.467-19.724-6.669-28.859-9.191-11.098-3.699-23.363-8.227-31.617-10.772-12.941-5.475-25.596-9.133-36.675-14.611-6.773-2.32-9.202-2.463-14.738-5.927-16.432-4.394-36.409-16.258-49.197-20.431-8.016-5.416-15.598-7.458-22-11.399-10.431-5.357-20.942-9.998-30.339-16.255-15.779-7.613-31.135-18.143-48.415-27.657-12.636-7.068-22.864-15.478-32.79-20.714-6.321-4.362-9.039-5.225-16.834-10.255-13.948-10.683-28.025-17.605-41.29-28.477-3.801-2.606-16.715-9.135-23.058-16.555-8.481-2.441-12.544-9.149-18.949-13.036-5.057-4.431-15.557-9.858-19.651-15.618-5.477-2.528-13.398-10.583-18.456-13.505-6.693-6.686-13.667-11.953-21.638-17.266-14.081-7.797-11.562 15.337-18.084 22.387 1.782 13.634-13.633 18.268-12.352 4.977-3.040-3.971-6.645-24.503-8.542-27.806-3.584-14.093-10.387-29.256-20.965-33.264-10.994-8.393-25.293-15.711-34.045-24.195-4.624-13.362 22.074-5.496 30.862-14.035-0.047-12.899-4.681-24.181-7.125-34.705-9.638-17.991 2.979-17.97 10.751-5.624 9.535 9.158 13.601 16.658 23.921 24.943 5.386 9.423 14.125 10.328 26.382 7.043 11.099-4.458 34.888-5.397 26.633 5.288-2.355 6.541-6.275 16.951-8.065 22.694-3.81 5.895-3.138 16.106 3.555 22.697-0.338-3.732 9.864 11.144 14.193 12.324 7.886 6.076 15.161 17.572 20.182 18.621 4.067 5.658 11.411 10.75 14.19 13.833 5.796 5.588 8.382 6.364 14.158 13 11.601 9.165 22.614 19.544 35.134 27.893 5.534 5.665 6.497 5.786 13.666 10.821 14.309 10.113 26.67 19.88 40.681 28.435 7.114 5.302 14.205 10.698 22.266 15.046 5.679 4.672 8.93 6.897 14.394 9.817 7.579 4.962 13.196 8.654 17.972 12.624 10.766 5.365 24.668 15.623 38.152 22.65 12.6 6.743 23.095 13.916 36.159 19.086 2.317 4.529 12.975 4.755 20.955 11.279 1.772 0.125 11.349 5.259 15.152 6.582 7.094 3.409 15.844 7.923 23.916 10.124 7 4.544 20.549 7.855 23.457 10.411 12.882 5.452 22.77 8.528 36.672 13.374 4.767 2.597 7.745 3.553 15.137 5.315 20.953 6.924 41.016 14.288 61.533 19.797 3.261 2.697 20.304 5.514 31.284 8.987 12.423 0.208 21.764 11.783 3.168 9.099zM173.605 471.981c-6.638-3.989-10.573-13.409-16.341-19.621-3.323-3.384-8.367-13.766-14.436-15.3-13.432-5.175-56.037 6.474-50.925-9.328 7.912-2.939 15.119-7.684 24.628-12.801 10.65-7.109 2.652-11.338-2.446-18.099-7.024-8.107-11.887-15.628-17.16-21.928 0.994-11.872 21.836 7.119 24.074 4.492 11.584 5.025 16.726 10.427 30.26 9.798 11.714-5.003 20.073-22.22 31.327-21.822-0.008 18.756-3.516 44.857 21.979 46.52 7.519 5.173 24.572 3.769 23.819 13.687-15.33 3.446-31.645 1.584-45.357 9.941-7.108 8.137 0.634 31.846-9.423 34.461zM776.703 423.238c-4.324-10.986-5.745-21.080-10.918-29.901-12.21-4.097-21.868 0.173-31.264 3.496-25.82 5.719 8.968-18.006 2.705-13.564 8.788-9.415 27.224-17.279 14.675-32.030-13.958-24.074 11.542-12.186 23.201-6.046 7.971 5.88 16.82-2.953 23.447-6.943 6.955-2.306 13.444-10.346 22.13-9.588-2.073 9.614-6.99 14.592-11.31 26.129-5.382 8.151 11.013 12.949 14.956 16.6 26.788 12.652 7.776 19.611-16.686 14.937-18.221-2.499-15.518 18.882-23.626 30.040 0.643 3.504-2.813 11.123-7.312 6.872zM275.907 354.948c-0.878-3.995 2.896 1.779 0 0zM659.973 328.296c-4.314-11.401-7.259-36.591-25.101-23.72-8.725 3.757-38.874 16.211-24.883 1.168 4.871-4.328 7.61-7.698 14.778-14.783 7.256-6.844 20.767-17.131 12.982-31.201-7.971-14.227-3.023-27.046 13.507-17.567 15.392 10.15 29.061-1.742 39.361-11.679 6.907-7.203 15.406-10.698 20.165-14.694 7.365 7.733-5.849 16.791-6.953 23.871-9.196 9.959-4.248 23.399 11.679 24.139 14.938 1.928 18.916 15.493-0.084 13.267-21.527 2.22-39.514 14.989-43.836 36.908-2.665 4.649-5.142 20.524-11.615 14.293zM313.942 289.282c-6.826-11.933-10.868-31.716-18.496-39.142-9.813-9.588-28.243-1.871-37.974-7.967-19.529-0.987-3.398-9.644 2.684-13.676 8.663-7.086 26.353-10.158 18.356-24.241-4.187-13.314-12.574-26.254-13.774-39.51 12.051 2.428 23.039 14.611 32.495 23.221 7.512 6.177 21.287 3.85 26.103-4.562 3.392-2.31 9.857-7.246 11.689-9.583 18.298-14.512 8.359 17.637 6.011 27.921-6.685 13.982 3.012 20.295 13.919 27.196 6.954 5.444 18.58 9.32 20.829 15.308-8.205 11.771-42.272-6.943-48.305 14.911-5.739 7.51-1.641 31.884-13.537 30.124zM500.867 279.786c-4.6-9.584-4.983-24.603-14.88-29.678-8.994 1.315-22.361 8.039-35.727 10.766-10.706-10.835 30.58-24.937 27.98-42.54-1.343-10.134-16.771-29.716-5.16-32.372 10.341 1.153 20.878 11.468 30.882 11.325 11.56-4.032 21.032-18.579 28.849-22.519 14.803-18.76 10.493 7.161 3.977 16.694-5.191 7.139-6.183 22.143 6 21.931 12.721 2.615 29.663 10.784 8.465 15.28-14.521 5.743-35.22 6.361-36.078 24.794-4.912 7.432-3.914 28.163-14.306 26.32zM734.609 653.404c0.181-0.3 0.486-0.389 0.676-0.2 0.186 0.186 0.904-0.133 1.593-0.712 1.232-1.038 1.234-1.035 0.198 0.2-1.015 1.204-3.153 1.821-2.466 0.712zM433.948 645.168c-0.189-0.308-0.066-0.733 0.274-0.942 0.343-0.213 0.438-0.705 0.216-1.094-0.223-0.392-0.176-0.502 0.102-0.249 0.656 0.597 0.83 2.845 0.221 2.845-0.256 0-0.623-0.254-0.812-0.56zM437.229 637.912c0.354-0.661 0.904-1.204 1.224-1.204 0.717 0 0.494 1.347-0.323 1.946-1.117 0.819-1.55 0.466-0.901-0.743zM597.167 638.258c1.768-2.323 8.395-8.677 8.323-7.978-0.041 0.394-2.128 2.613-4.638 4.928-2.512 2.313-4.17 3.685-3.685 3.050zM438.432 635.512c0-0.333 0.249-0.607 0.555-0.607s0.653-0.474 0.768-1.053c0.184-0.909 0.264-0.924 0.586-0.105 0.228 0.576-0.072 1.222-0.768 1.657-0.699 0.435-1.142 0.476-1.142 0.107zM443.037 625.626c-0.226-0.592-0.138-0.853 0.21-0.636 0.328 0.203 0.605-0.123 0.615-0.722 0.023-1.399 1.56-3.44 2.023-2.689 0.194 0.318-0.066 0.738-0.581 0.934s-0.809 0.566-0.651 0.822c0.156 0.254-0.056 1.099-0.471 1.878-0.651 1.211-0.814 1.273-1.145 0.412zM262.989 594.814c-0.578-0.231-0.456-0.553 0.451-1.188 0.684-0.479 1.245-1.306 1.245-1.839 0-1.165 0.779-0.52 0.975 0.807 0.074 0.517-0.008 0.796-0.181 0.62-0.445-0.445-1.931 1.010-1.596 1.562 0.3 0.497 0.256 0.499-0.894 0.038zM309.975 591.328c0-0.581 0.231-0.702 0.664-0.341 0.364 0.302 1.875 0.656 3.358 0.786 2.585 0.228 2.556 0.241-0.664 0.343-2.615 0.082-3.358-0.092-3.358-0.789zM269.784 589.835c0.161-0.262 0.878-0.628 1.59-0.814 0.968-0.254 1.127-0.166 0.618 0.343-0.786 0.786-2.648 1.183-2.208 0.471zM873.994 572.371c-0.21-0.336-0.586-0.481-0.837-0.325-0.254 0.156-0.461-0.11-0.461-0.592 0-1.222 0.578-1.091 1.465 0.325 0.412 0.664 0.63 1.204 0.481 1.204-0.151 0-0.44-0.277-0.648-0.613zM286.25 552.937c0.369-0.443 0.537-0.94 0.374-1.101-0.161-0.163 0.084-0.297 0.548-0.297 0.669 0 0.702 0.231 0.156 1.104-0.377 0.605-0.927 1.101-1.216 1.101-0.292 0-0.231-0.364 0.138-0.807zM287.856 549.577c-0.218-0.354-0.092-0.643 0.277-0.643s0.532-0.226 0.364-0.499c-0.171-0.277 0.079-0.502 0.555-0.502 0.692 0 0.722 0.189 0.143 0.952-0.397 0.522-0.771 1.038-0.832 1.142-0.061 0.102-0.29-0.1-0.507-0.451zM269.668 540.037c-0.527-0.336-0.41-0.661 0.423-1.181 0.727-0.453 1.285-0.502 1.516-0.13 0.2 0.325-0.074 0.59-0.61 0.59s-0.807 0.272-0.602 0.602c0.443 0.715 0.256 0.745-0.727 0.12zM273.979 536.951c0.226-0.364 0.692-0.486 1.035-0.274 0.346 0.213 0.888 0.015 1.206-0.44 0.476-0.682 0.537-0.669 0.338 0.074-0.133 0.494-0.86 0.992-1.616 1.101-0.881 0.128-1.227-0.036-0.963-0.461zM230.753 536.108c-0.796-0.581-0.86-0.802-0.239-0.802 0.471 0 1.193 0.361 1.606 0.802s0.52 0.802 0.239 0.802c-0.279 0-1.004-0.361-1.606-0.802zM284.874 531.421c0.205-0.331 0.522-0.451 0.707-0.267s0.727 0.010 1.204-0.387c1.326-1.099 2.984-1.245 1.888-0.163-1.007 0.994-4.351 1.713-3.798 0.817zM205.236 526.891c-0.038-0.387-0.246-1.199-0.458-1.806-0.302-0.853-0.223-0.945 0.356-0.412 0.41 0.379 0.618 1.188 0.458 1.803-0.156 0.615-0.318 0.799-0.356 0.415zM861.483 486.987c-0.758-0.733-0.883-1.186-0.41-1.478 0.374-0.231 0.842-0.259 1.043-0.061 0.198 0.2-0.023 0.384-0.491 0.41-0.468 0.028-0.077 0.392 0.873 0.812 1.117 0.494 1.435 0.868 0.901 1.066-0.453 0.169-1.313-0.169-1.916-0.748zM851.692 477.895c-0.169-0.277 0.046-0.507 0.479-0.512 0.586-0.005 0.566-0.148-0.087-0.56-0.479-0.305-1.086-0.42-1.344-0.262-0.262 0.161-0.31-0.133-0.11-0.653 0.308-0.804 3.229 1.293 3.229 2.318 0 0.41-1.888 0.12-2.167-0.331zM456.166 467.345c-1.693-0.407-2.338-1.16-1.463-1.7 0.481-0.297 0.595-0.216 0.318 0.233-0.269 0.435 0.018 0.694 0.773 0.694 0.664 0 1.37 0.269 1.575 0.6s0.287 0.571 0.184 0.532c-0.1-0.038-0.725-0.2-1.389-0.359zM484.584 465.74c-0.573-0.435-0.881-0.952-0.682-1.153s0.745 0.018 1.211 0.484c0.466 0.466 1.311 0.699 1.883 0.514 0.878-0.282 0.896-0.233 0.133 0.318-1.132 0.814-1.273 0.804-2.545-0.163zM476.081 462.241c0.163-0.264 0.822-0.479 1.465-0.479 0.641 0 1.165 0.216 1.165 0.479 0 0.267-0.659 0.481-1.463 0.481-0.807 0-1.331-0.216-1.168-0.481zM469.009 459.376c-1.191-0.992-1.25-1.183-0.369-1.201 0.578-0.010 1.053 0.267 1.053 0.618 0 0.348 0.313 0.443 0.694 0.208 0.41-0.254 0.532-0.166 0.297 0.213-0.218 0.354-0.056 0.781 0.359 0.947 0.484 0.194 0.509 0.323 0.069 0.354-0.377 0.026-1.324-0.486-2.102-1.137zM156.581 451.241c-0.717-0.827-1.104-1.498-0.858-1.493 0.664 0.015 3.371 2.994 2.723 2.994-0.308 0-1.145-0.676-1.865-1.501zM388.527 438.008c-0.605-0.727-0.568-0.896 0.198-0.896 1.122 0 1.855 0.98 1.089 1.455-0.3 0.184-0.878-0.066-1.285-0.558zM391.536 425.361c-0.871-0.481-1.122-0.837-0.6-0.842 1.073-0.015 2.791 0.987 2.387 1.391-0.156 0.156-0.96-0.092-1.788-0.548zM369.549 413.377c-0.636-0.481-0.886-0.881-0.555-0.886 0.894-0.015 2.42 1.058 2.041 1.435-0.179 0.181-0.848-0.066-1.486-0.548zM725.001 397.033c-0.63-0.63-0.468-2.005 0.236-2.005 0.351 0 0.451 0.302 0.223 0.669-0.226 0.369-0.038 0.904 0.417 1.193s0.535 0.53 0.176 0.535c-0.359 0.005-0.832-0.171-1.053-0.392zM114.184 377.794c-0.73-0.73-0.415-1.37 0.502-1.020 0.497 0.189 0.901 0.59 0.901 0.883 0 0.63-0.827 0.71-1.404 0.135zM821.555 370.938c-0.046-0.638 0.166-1.16 0.476-1.16 0.687 0 0.756 1.616 0.087 2.028-0.262 0.161-0.514-0.228-0.563-0.868zM260.195 366.2c-0.223-0.356-0.656-0.494-0.963-0.305-0.308 0.192-0.558 0.061-0.558-0.29s0.389-0.638 0.865-0.638c0.927 0 1.857 1.086 1.357 1.583-0.163 0.166-0.481 0.008-0.702-0.351zM287.225 363.157c-0.115-0.189 0.305-0.384 0.937-0.43 0.63-0.049 1.293 0.151 1.473 0.44s-0.241 0.484-0.934 0.43c-0.694-0.051-1.357-0.251-1.475-0.44zM228.356 345.988c-1.186-1.186-1.199-1.519-0.043-1.076 0.497 0.189 0.901 0.568 0.901 0.837 0 0.272 0.474 0.618 1.053 0.768 0.937 0.246 0.942 0.282 0.043 0.346-0.555 0.038-1.435-0.356-1.954-0.876zM207.37 332.104c-0.73-0.73-0.415-1.372 0.502-1.020 0.497 0.189 0.901 0.586 0.901 0.883 0 0.63-0.827 0.71-1.404 0.135zM196.234 324.754c-0.568-0.359-0.615-0.641-0.148-0.927 0.364-0.226 0.664-0.097 0.664 0.29s0.42 0.54 0.934 0.343c0.535-0.205 0.776-0.105 0.563 0.236-0.445 0.725-0.942 0.738-2.013 0.059zM479.359 251.529c-0.064-0.984 0.987-1.552 1.458-0.789 0.21 0.343 0.676 0.44 1.035 0.218 0.4-0.246 0.479-0.123 0.208 0.32-0.325 0.527-0.664 0.545-1.237 0.069-0.581-0.481-0.873-0.451-1.101 0.12-0.216 0.532-0.328 0.55-0.361 0.061zM137.857 246.944c-0.72-1.155-0.71-1.224 0.084-0.568 0.497 0.412 1.081 0.568 1.298 0.351s0.397-0.095 0.397 0.272c0 1.278-0.968 1.25-1.78-0.054zM341.562 220.529c-0.628-1.178-0.605-1.255 0.184-0.605 0.497 0.41 1.096 0.553 1.331 0.318s0.249 0.038 0.031 0.607c-0.514 1.339-0.682 1.306-1.547-0.32zM110.779 174.388c0-0.748 0.4-1.199 1.053-1.193 0.832 0.008 0.878 0.12 0.223 0.535-0.456 0.287-0.643 0.825-0.415 1.193 0.228 0.366 0.128 0.669-0.223 0.669s-0.638-0.543-0.638-1.204z" />
<glyph unicode="&#xe902;" glyph-name="fsc" d="M580.707 765.609c-189.899 0-256.977-294.297-319.333-531.433-22.675 22.673-92.116 92.116-92.116 91.641-14.172 13.699-30.233 9.448-39.68-0.472-9.92-9.92-11.339-28.344 0-39.208 0.472-0.472 94.005-93.531 126.599-125.653 8.975-8.501 21.729-13.699 34.957-6.141 13.227 8.031 15.117 22.673 15.588 22.673 110.539 496.007 209.739 532.851 273.984 532.851 54.325 0 116.679-39.68 116.679-119.515 80.777 0 131.324-105.813 66.135-171.004 53.852-25.981 77.944-58.104 77.944-98.257 0-40.624-34.012-81.723-83.612-81.723-49.128 0-74.165 31.649-112.431 31.649-17.477 0-27.871-14.172-27.871-27.871v-100.147h-72.747v99.673c0 15.588-11.809 27.871-25.981 27.871 0 0-6.141 0-6.141-0.472l-96.839-11.809c-11.809-1.889-22.673-14.643-22.673-27.399 0-15.117 12.753-27.871 29.76-27.871 2.363 0 5.197 0 4.723 0.472 0 0 61.411 8.031 61.411 8.031v-99.201c0-12.283 14.172-24.563 26.927-24.563h128.961c15.117 0 27.871 12.755 27.871 27.871v90.225c26.927-16.532 64.245-22.673 83.612-22.673 72.276 0 141.244 56.685 140.771 139.827-0.472 75.109-58.104 112.9-58.104 112.9 34.012 90.225-20.785 177.145-92.116 201.237-25.037 92.587-104.399 128.488-166.281 128.488zM840.52 708.45h9.92c4.723 0 7.556 0.945 9.448 1.889 1.889 1.419 2.833 3.307 2.833 5.668s-0.945 4.252-2.363 5.668c-1.889 1.419-5.197 1.889-10.393 1.889h-9.448v-15.117zM875.006 680.108h-9.92c-6.141 11.337-10.393 17.951-12.283 19.369s-4.252 2.363-7.085 2.363h-4.723v-21.259h-8.031v50.073h17.477c5.197 0 8.975-0.472 12.283-1.419 2.833-0.472 5.197-2.363 7.087-4.723s2.833-5.197 2.833-8.031c0-3.307-1.417-6.613-3.779-9.448s-6.141-4.252-10.865-4.723v0c2.833-0.945 7.087-5.197 11.809-12.755l5.197-9.448zM852.802 666.881c10.865 0 19.84 3.779 27.871 11.337 7.556 7.556 11.809 17.005 11.809 27.871s-3.779 19.84-11.809 27.871c-7.556 7.556-17.005 11.339-27.871 11.339s-20.313-3.779-27.871-11.339c-7.556-7.556-11.339-17.007-11.339-27.871s3.779-20.313 11.339-27.871c7.556-7.556 17.007-11.337 27.871-11.337zM852.802 752.856c12.755 0 24.092-4.723 33.067-13.699 9.448-9.448 13.699-20.313 13.699-33.067s-4.723-24.092-13.699-33.067c-9.448-8.975-20.313-13.699-33.067-13.699-13.227 0-24.092 4.723-33.539 13.699-9.448 9.448-13.699 20.313-13.699 33.539 0 12.755 4.723 24.092 13.699 33.067 9.448 8.975 20.785 13.227 33.539 13.227zM852.802 656.488c-13.699 0-25.508 4.723-34.957 14.643-9.92 9.448-14.643 21.257-14.643 34.957s4.723 25.508 14.643 34.957c9.448 9.448 21.729 14.643 34.957 14.643s25.037-4.723 34.957-14.643c9.92-9.448 14.643-21.257 14.643-34.957s-4.723-25.508-14.643-34.957c-9.448-9.448-21.257-14.643-34.957-14.643zM852.802 750.493c-12.283 0-23.147-4.252-31.649-13.227-8.975-8.975-13.227-18.895-13.227-31.177s4.252-22.675 13.227-31.649c8.501-8.503 19.369-13.227 31.649-13.227s22.673 4.252 31.649 13.227c8.501 8.501 13.227 19.369 13.227 31.649s-4.252 22.673-13.227 31.649c-8.975 8.503-19.369 12.755-31.649 12.755zM852.802 664.048c-11.337 0-21.257 4.252-29.76 12.283-8.031 8.031-12.283 17.951-12.283 29.76 0 11.337 4.252 21.257 12.283 29.289s17.951 12.283 29.76 12.283c11.339 0 21.259-4.252 29.76-12.283 8.031-8.031 12.283-17.951 12.283-29.289s-4.252-21.259-12.283-29.76c-8.501-8.031-18.424-12.283-29.76-12.283zM852.802 742.936c-9.92 0-18.895-3.779-25.981-10.865s-10.865-15.588-10.865-25.981c0-9.92 3.779-18.895 10.865-25.981s16.061-10.865 25.981-10.865c10.393 0 18.895 3.779 25.981 10.865s10.865 15.588 10.865 25.981c0 10.393-3.779 18.424-10.865 25.981-7.087 7.087-16.061 10.865-25.981 10.865zM879.258 677.746h-16.061l-0.945 1.419c-8.503 15.588-11.339 18.424-11.809 18.424-1.417 0.945-3.307 1.419-5.668 1.419h-2.363v-21.259h-13.227v55.271h20.313c5.668 0 9.92-0.472 12.755-1.419 3.779-0.472 6.613-2.363 8.501-5.197s3.307-6.141 3.307-9.448c0-4.252-1.417-8.031-4.252-10.865-1.889-1.889-3.779-3.307-6.613-4.252 2.363-2.363 4.723-5.668 8.031-10.393l8.031-13.699zM866.5 682.469h4.252l-3.779 6.141c-6.141 9.92-9.448 11.339-10.393 11.339l-1.417 0.472c2.363-2.835 6.141-8.503 11.339-17.951zM834.852 682.469h3.307v21.259h7.556c3.307 0 6.613-0.945 8.501-2.835 0 0 0.472 0 0.472-0.472v3.779l2.363 0.472c4.252 0.472 7.085 1.419 8.975 3.779 2.363 2.363 3.307 4.723 3.307 7.556 0 2.363-0.945 4.252-2.363 6.141s-3.307 4.252-5.668 4.723c-2.363 0.945-6.141 0.945-11.337 0.945h-15.117v-45.351zM850.44 706.088h-12.755v20.313h11.809c5.668 0 9.448-0.945 11.809-2.363 2.363-1.889 3.779-4.252 3.779-7.556s-1.417-5.668-3.779-7.556c-2.363-2.363-5.668-2.835-10.865-2.835zM842.882 710.813h7.556c4.723 0 7.087 0.945 8.031 1.419 0.945 0.945 1.417 1.889 1.417 3.779 0 1.419-0.472 2.835-1.417 3.779-0.472 0.472-2.363 1.419-8.975 1.419h-7.085v-10.393z" />
<glyph unicode="&#xe903;" glyph-name="fsc-w-text" d="M580.7 895.987c-189.899 0-256.978-294.297-319.334-531.434-22.674 22.674-92.116 92.116-92.116 91.642-14.172 13.699-30.233 9.448-39.68-0.472-9.92-9.92-11.338-28.344 0-39.208 0.472-0.472 94.005-93.531 126.599-125.654 8.975-8.502 21.729-13.699 34.957-6.141 13.227 8.031 15.117 22.674 15.588 22.674 110.538 496.006 209.739 532.851 273.984 532.851 54.325 0 116.679-39.68 116.679-119.514 80.778 0 131.324-105.814 66.134-171.004 53.852-25.981 77.944-58.104 77.944-98.257 0-40.624-34.012-81.722-83.612-81.722-49.128 0-74.165 31.649-112.43 31.649-17.478 0-27.871-14.172-27.871-27.871v-100.146h-72.747v99.673c0 15.588-11.809 27.871-25.981 27.871 0 0-6.141 0-6.141-0.472l-96.839-11.809c-11.809-1.889-22.674-14.643-22.674-27.399 0-15.117 12.754-27.871 29.76-27.871 2.363 0 5.197 0 4.723 0.472 0 0 61.411 8.031 61.411 8.031v-99.202c0-12.283 14.172-24.562 26.926-24.562h128.961c15.117 0 27.871 12.754 27.871 27.871v90.226c26.926-16.532 64.245-22.674 83.612-22.674 72.276 0 141.244 56.686 140.771 139.826-0.472 75.11-58.104 112.9-58.104 112.9 34.012 90.226-20.785 177.145-92.116 201.237-25.037 92.587-104.398 128.488-166.281 128.488zM499.923 107.574c0-23.147 25.981-37.319 68.968-57.63 34.012-16.061 53.38-32.594 53.38-46.294 0-21.729-23.619-29.76-45.821-29.76-34.012 0-54.325 13.699-65.661 43.932l-0.945 2.363h-2.834c-6.141 0-10.865-0.472-13.227-3.307-2.363-3.307-1.889-7.086-0.945-11.338 0 0 7.556-31.178 7.556-31.178 1.889-7.556 4.723-8.975 17.006-11.338 5.197-0.945 33.067-5.668 56.214-5.668 65.19 0 94.478 26.454 94.478 52.907 0 18.895-18.895 37.319-59.993 57.63l-18.424 8.975c-27.871 13.227-44.876 21.258-44.876 35.431 0 13.699 17.478 23.147 42.515 23.147 32.594 0 41.569-18.424 45.35-34.012l0.945-2.834h3.307c7.086 0 11.809 0.472 14.643 3.307 1.418 1.889 2.363 3.779 1.889 6.613l-2.363 26.926c-0.945 8.502-7.556 9.92-16.532 11.809-10.865 1.889-24.092 4.252-43.932 4.252-57.159 0.472-90.698-16.061-90.698-43.932zM687.933 52.777c0-47.239 41.098-94.95 119.514-94.95 39.68 0 61.882 8.975 78.417 17.951l4.252 2.363-7.086 8.031 0.472-0.472c-1.889 2.363-3.307 2.834-5.668 2.834l-3.779-1.418c-6.141-2.834-24.092-11.338-57.159-11.338-40.624 0-84.085 26.454-84.085 84.555 0 55.27 47.239 74.636 87.864 74.636 29.289 0 44.405-10.393 47.71-31.649l0.472-3.307h3.779c3.307 0 12.754 0 12.754 7.086v32.123c0 8.031-8.975 8.975-12.754 9.448l-3.779 0.472c-9.448 1.418-18.424 2.363-42.042 2.363-80.778 0.472-138.881-41.098-138.881-98.728zM392.219 149.616l-70.858-0.472-47.239 0.945h-7.086c-4.252 0-7.086-2.834-7.086-7.556 0-1.889 0-8.502 8.031-8.502 28.344 0 29.76-2.363 29.76-13.227l0.472-7.086 0.472-28.815v-62.356c0-10.393-0.472-26.926-0.945-40.153 0-3.779-0.472-7.556-25.508-7.556-7.086 0-11.338-1.418-11.338-8.502 0-1.889 0-7.556 6.613-7.556h1.418c2.834 0 10.865 0.472 50.545 0.472 42.042 0 50.545-0.472 53.38-0.472h1.418c5.668 0 10.393 0.472 10.393 7.556 0 7.556-6.141 8.502-17.006 8.502-25.037 0-25.508 3.779-25.508 7.556-0.472 12.283-0.945 28.815-0.945 40.153v22.674h21.258c32.594 0 35.901-0.945 40.624-25.981 1.418-5.197 5.668-6.141 9.448-6.141 7.556 0 8.502 4.252 8.502 6.141l-0.472 9.448c-0.472 5.197-0.945 11.809-0.945 21.258v38.264c0 5.668-7.086 5.668-10.865 5.668-6.141 0-7.556-3.779-11.338-22.203-1.889-7.086-15.117-10.865-36.846-10.865h-18.895v56.214c0 15.117 2.834 15.588 6.141 15.588 12.283 0.472 42.515 1.418 51.491 1.418 8.502 0 16.532-1.889 21.729-5.197 16.061-9.92 24.092-16.532 29.289-20.785 4.723-3.779 7.556-6.141 11.338-6.141 2.363 0 8.975 0 8.975 5.668 0 1.418-0.472 2.834-2.834 7.556-2.363 5.668-7.086 15.117-12.754 29.76-1.418 4.723-7.086 4.723-17.006 4.723h-45.821zM840.513 838.828h9.92c4.723 0 7.556 0.945 9.448 1.889 1.889 1.418 2.834 3.307 2.834 5.668s-0.945 4.252-2.363 5.668c-1.889 1.418-5.197 1.889-10.393 1.889h-9.448v-15.117zM874.998 810.485h-9.92c-6.141 11.338-10.393 17.951-12.283 19.369s-4.252 2.363-7.086 2.363h-4.723v-21.258h-8.031v50.073h17.478c5.197 0 8.975-0.472 12.283-1.418 2.834-0.472 5.197-2.363 7.086-4.723s2.834-5.197 2.834-8.031c0-3.307-1.418-6.613-3.779-9.448s-6.141-4.252-10.865-4.723v0c2.834-0.945 7.086-5.197 11.809-12.754l5.197-9.448zM852.795 797.259c10.865 0 19.84 3.779 27.871 11.338 7.556 7.556 11.809 17.006 11.809 27.871s-3.779 19.84-11.809 27.871c-7.556 7.556-17.006 11.338-27.871 11.338s-20.313-3.779-27.871-11.338c-7.556-7.556-11.338-17.006-11.338-27.871s3.779-20.313 11.338-27.871c7.556-7.556 17.006-11.338 27.871-11.338zM852.795 883.234c12.754 0 24.092-4.723 33.067-13.699 9.448-9.448 13.699-20.313 13.699-33.067s-4.723-24.092-13.699-33.067c-9.448-8.975-20.313-13.699-33.067-13.699-13.227 0-24.092 4.723-33.539 13.699-9.448 9.448-13.699 20.313-13.699 33.539 0 12.754 4.723 24.092 13.699 33.067 9.448 8.975 20.785 13.227 33.539 13.227zM852.795 786.866c-13.699 0-25.508 4.723-34.957 14.643-9.92 9.448-14.643 21.258-14.643 34.957s4.723 25.508 14.643 34.957c9.448 9.448 21.729 14.643 34.957 14.643s25.037-4.723 34.957-14.643c9.92-9.448 14.643-21.258 14.643-34.957s-4.723-25.508-14.643-34.957c-9.448-9.448-21.258-14.643-34.957-14.643zM852.795 880.871c-12.283 0-23.147-4.252-31.649-13.227-8.975-8.975-13.227-18.895-13.227-31.178s4.252-22.674 13.227-31.649c8.502-8.502 19.369-13.227 31.649-13.227s22.674 4.252 31.649 13.227c8.502 8.502 13.227 19.369 13.227 31.649s-4.252 22.674-13.227 31.649c-8.975 8.502-19.369 12.754-31.649 12.754zM852.795 794.425c-11.338 0-21.258 4.252-29.76 12.283-8.031 8.031-12.283 17.951-12.283 29.76 0 11.338 4.252 21.258 12.283 29.289s17.951 12.283 29.76 12.283c11.338 0 21.258-4.252 29.76-12.283 8.031-8.031 12.283-17.951 12.283-29.289s-4.252-21.258-12.283-29.76c-8.502-8.031-18.424-12.283-29.76-12.283zM852.795 873.314c-9.92 0-18.895-3.779-25.981-10.865s-10.865-15.588-10.865-25.981c0-9.92 3.779-18.895 10.865-25.981s16.061-10.865 25.981-10.865c10.393 0 18.895 3.779 25.981 10.865s10.865 15.588 10.865 25.981c0 10.393-3.779 18.424-10.865 25.981-7.086 7.086-16.061 10.865-25.981 10.865zM879.25 808.124h-16.061l-0.945 1.418c-8.502 15.588-11.338 18.424-11.809 18.424-1.418 0.945-3.307 1.418-5.668 1.418h-2.363v-21.258h-13.227v55.27h20.313c5.668 0 9.92-0.472 12.754-1.418 3.779-0.472 6.613-2.363 8.502-5.197s3.307-6.141 3.307-9.448c0-4.252-1.418-8.031-4.252-10.865-1.889-1.889-3.779-3.307-6.613-4.252 2.363-2.363 4.723-5.668 8.031-10.393l8.031-13.699zM866.494 812.847h4.252l-3.779 6.141c-6.141 9.92-9.448 11.338-10.393 11.338l-1.418 0.472c2.363-2.834 6.141-8.502 11.338-17.951zM834.845 812.847h3.307v21.258h7.556c3.307 0 6.613-0.945 8.502-2.834 0 0 0.472 0 0.472-0.472v3.779l2.363 0.472c4.252 0.472 7.086 1.418 8.975 3.779 2.363 2.363 3.307 4.723 3.307 7.556 0 2.363-0.945 4.252-2.363 6.141s-3.307 4.252-5.668 4.723c-2.363 0.945-6.141 0.945-11.338 0.945h-15.117v-45.35zM850.433 836.466h-12.754v20.313h11.809c5.668 0 9.448-0.945 11.809-2.363 2.363-1.889 3.779-4.252 3.779-7.556s-1.418-5.668-3.779-7.556c-2.363-2.363-5.668-2.834-10.865-2.834zM842.875 841.191h7.556c4.723 0 7.086 0.945 8.031 1.418 0.945 0.945 1.418 1.889 1.418 3.779 0 1.418-0.472 2.834-1.418 3.779-0.472 0.472-2.363 1.418-8.975 1.418h-7.086v-10.393z" />
<glyph unicode="&#xe904;" glyph-name="microenterprise" d="M928.768 726.699l-358.4 196.608c-36.863 20.48-80.897 20.48-117.76 0l-358.4-196.608c-38.91-21.507-63.486-62.467-63.486-107.52v-385.024c0-45.057 24.577-86.016 63.486-107.52l358.4-196.608c18.434-10.24 38.914-15.36 59.394-15.36s40.96 5.12 58.366 15.36l358.4 196.608c38.914 21.503 63.486 62.463 63.486 107.52l0.003 385.024c0 45.053-24.577 86.016-63.49 107.52zM952.322 234.155c0-29.697-16.383-57.343-43.006-71.68l-358.4-196.608c-24.577-13.314-54.274-13.314-78.846 0l-358.4 196.608c-25.6 14.337-41.983 41.983-41.983 71.68l-0.003 385.024c0 29.697 16.383 57.343 43.006 71.68l358.4 196.608c11.263 7.167 25.6 10.24 38.914 10.24s27.646-3.073 38.914-10.24l358.4-196.608c26.623-14.337 43.006-41.983 43.006-71.68zM386.048 582.315c25.6 0 48.126 9.217 63.486 22.526 15.36-14.337 37.886-22.526 63.486-22.526 24.577 0 47.103 9.217 62.463 22.526 15.36-14.337 37.886-22.526 63.486-22.526 47.103 0 83.966 28.674 84.994 65.537 0 5.12-2.047 9.217-4.097 12.286l-25.6 35.84-1.023 1.023-64.514 90.112c-3.073 5.12-10.24 8.193-16.383 8.193h-198.647c-6.143 0-12.286-3.073-16.383-8.193l-64.514-90.112-1.023-1.023-25.6-35.84c-3.073-4.097-4.097-8.193-4.097-12.286 0-36.863 36.863-65.537 83.966-65.537zM363.522 671.403l1.023 1.023 58.366 81.92h177.152l59.394-82.943 1.023-1.023 19.457-27.646c-4.097-10.24-20.48-19.457-41.983-19.457-24.577 0-43.006 13.314-43.006 24.577s-9.217 20.48-20.48 20.48-20.48-9.217-20.48-20.48-17.406-24.577-41.983-24.577c-24.577 0-43.006 13.314-43.006 24.577s-9.217 20.48-20.48 20.48-20.48-9.217-19.457-19.457c0-11.263-18.434-24.577-43.006-24.577-21.503 0-37.886 9.217-41.983 19.457zM816.128 388.779v53.246c0 10.24-7.167 18.434-17.406 20.48v88.064c0 11.263-9.217 20.48-20.48 20.48h-72.703c-11.263 0-20.48-9.217-20.48-20.48v-88.064c-10.24-1.023-17.406-10.24-17.406-20.48v-52.223h-14.337v151.552c0 11.263-9.217 20.48-20.48 20.48s-20.48-9.217-20.48-20.48v-151.552h-24.577v29.697c0 25.6-20.48 47.103-47.103 47.103h-58.366c-25.6 0-47.103-24.577-47.103-47.103v-29.697h-23.554l-0.003 151.552c0 11.263-9.217 20.48-20.48 20.48s-20.48-9.217-20.48-20.48v-151.552h-35.84v75.777c0 11.263-9.217 20.48-20.48 20.48h-96.256c-11.263 0-20.48-9.217-20.48-20.48v-76.8c-9.217-2.047-15.36-10.24-15.36-19.457 0-11.263 9.217-20.48 20.48-20.48h128v-269.312c0-11.263 9.217-20.48 20.48-20.48h321.536c11.263 0 20.48 9.217 21.503 19.457l0.003 270.336h114.688c11.263 0 20.48 9.217 20.48 20.48 0 9.217-5.12 16.383-13.314 19.457zM726.016 529.067h31.743v-66.56h-31.743zM238.592 389.803v55.297h55.297v-55.297zM371.712 98.987v249.856h281.6v-249.856zM708.608 389.803v31.743h66.56v-31.743zM558.080 523.947c0-23.753-19.256-43.006-43.006-43.006-23.753 0-43.010 19.253-43.010 43.006s19.256 43.006 43.010 43.006c23.75 0 43.006-19.253 43.006-43.006z" />
<glyph unicode="&#xe905;" glyph-name="seasonal-food" d="M821.248 651.947h-184.32v20.48c0 11.263-9.217 20.48-20.48 20.48s-20.48-9.217-20.48-20.48v-20.48h-163.84v20.48c0 11.263-9.217 20.48-20.48 20.48s-20.48-9.217-20.48-20.48v-20.48h-184.32c-11.263 0-20.48-9.217-20.48-20.48v-430.080c0-11.263 9.217-20.48 20.48-20.48h133.12c11.263 0 20.48 9.217 20.48 20.48s-9.217 20.48-20.48 20.48h-112.64v286.72h573.44v-88.064c0-11.263 9.217-20.48 20.48-20.48s20.48 9.217 20.48 20.48v210.944c0 11.263-9.213 20.48-20.48 20.48zM227.328 549.547v61.44h163.84v-20.48c0-11.263 9.217-20.48 20.48-20.48s20.48 9.217 20.48 20.48v20.48h163.84v-20.48c0-11.263 9.217-20.48 20.48-20.48s20.48 9.217 20.48 20.48v20.48h163.84v-61.44zM309.248 426.667h10.24c11.263 0 20.48 9.217 20.48 20.48s-9.217 20.48-20.48 20.48h-10.24c-11.263 0-20.48-9.217-20.48-20.48s9.217-20.48 20.48-20.48zM432.128 467.627h-10.24c-11.263 0-20.48-9.217-20.48-20.48s9.217-20.48 20.48-20.48h10.24c11.263 0 20.48 9.217 20.48 20.48s-9.213 20.48-20.48 20.48zM432.128 385.707h-122.88c-11.263 0-20.48-9.217-20.48-20.48s9.217-20.48 20.48-20.48h122.88c11.263 0 20.48 9.217 20.48 20.48s-9.213 20.48-20.48 20.48zM370.688 303.787h-61.44c-11.263 0-20.48-9.217-20.48-20.48s9.217-20.48 20.48-20.48h61.44c11.263 0 20.48 9.217 20.48 20.48s-9.213 20.48-20.48 20.48zM987.136 196.267c4.097 12.286 6.143 25.6 6.143 38.914v384c0 45.057-24.577 86.016-63.486 107.52l-358.4 196.608c-36.863 20.48-80.897 20.48-117.76 0l-358.4-196.608c-39.937-21.507-64.514-62.467-64.514-107.52v-385.024c0-45.057 24.577-86.016 63.486-107.52l358.4-196.608c18.434-10.24 38.914-15.36 59.394-15.36s40.96 5.12 59.394 15.36l129.024 70.657c30.72-51.2 86.016-86.016 149.504-86.016 96.256 0 174.080 77.823 174.080 174.080 0 39.933-14.337 77.82-36.863 107.52zM675.84 88.747c0-17.406 3.073-34.817 7.167-50.177l-88.064-48.126c-2.047 2.047-5.12 4.097-8.193 6.143-24.577 8.193-62.463 32.766-87.040 59.394-1.023 1.023-2.047 2.047-3.073 2.047-4.097 4.097-11.263 13.314-13.314 18.434-34.817 77.823-20.48 132.096-8.193 157.696 13.314 28.674 34.817 49.154 60.417 56.32 29.697 8.193 59.394-5.12 73.726-13.314 16.383-9.217 35.84-9.217 52.223 0 14.337 8.193 44.034 21.503 73.726 13.314 18.434-5.12 36.863-18.434 51.2-39.937-63.48-24.577-110.583-88.064-110.583-161.792zM940.032 29.353c-3.073-7.167-10.24-12.286-18.434-12.286-3.073 0-5.12 1.023-8.193 2.047l-71.68 30.72c-7.167 3.073-12.286 10.24-12.286 18.434v102.4c0 11.263 9.217 20.48 20.48 20.48s20.48-9.217 20.48-20.48v-89.088l59.394-25.6c10.24-4.097 15.36-16.387 10.24-26.627zM952.318 234.153v-5.12c-28.674 20.48-63.486 33.794-102.4 33.794-7.167 0-13.314 0-20.48-1.023-18.434 33.794-47.103 59.394-81.92 68.606-35.84 10.24-69.634 0-91.136-10.24 1.023 10.24 1.023 19.457 2.047 27.646 32.766 1.023 58.366 11.263 77.823 29.697 35.84 34.817 32.766 86.016 32.766 88.064-1.023 9.217-6.143 16.383-14.337 18.434-6.143 2.047-45.057 12.286-80.897-13.314-22.526-16.383-37.886-41.983-48.126-76.8-16.383 22.526-41.983 37.886-80.897 39.937-11.263 1.023-20.48-8.193-21.503-19.457s8.193-20.48 19.457-21.503c46.080-2.047 62.463-33.794 67.583-69.634-22.526 9.217-53.246 16.383-86.016 7.167-36.863-10.24-68.606-38.914-87.040-77.823-25.6-55.297-22.526-123.904 8.193-192.512 2.047-3.073 10.24-21.503 23.554-32.766 22.526-25.6 54.274-48.126 81.92-61.44l0.003 0.003c-24.577-13.314-54.274-13.314-78.846 0l-358.4 196.608c-26.623 14.337-43.006 41.983-43.006 71.68l-0.003 385.024c0 29.697 16.383 57.343 41.983 71.68l360.448 196.608c12.286 7.167 25.6 10.24 38.914 10.24s26.623-3.073 38.914-10.24l358.4-196.608c26.623-14.337 43.006-41.983 43.006-71.68z" />
<glyph unicode="&#xe906;" glyph-name="cooperative" d="M928.768 726.699l-210.944 115.712c-1.023 1.023-3.073 2.047-4.097 2.047l-143.36 78.85c-36.863 20.48-80.897 20.48-117.76 0l-358.4-196.608c-38.91-21.507-63.486-62.467-63.486-107.52v-385.024c0-45.057 24.577-86.016 63.486-107.52l210.944-115.712c1.023-1.023 3.073-2.047 4.097-2.047l142.336-77.823c18.434-10.24 38.914-15.36 59.394-15.36s40.96 5.12 58.366 15.36l358.4 196.608c38.914 21.503 63.486 62.463 63.486 107.52l0.003 384c1.023 45.053-23.554 86.016-62.467 107.52zM910.338 690.859l-136.192-94.208c-14.337-10.24-31.743-15.36-50.177-15.36l-161.792-0.003c-16.383 0-30.72 11.263-31.743 26.623-2.047 16.383 10.24 30.72 26.623 32.766h110.592c11.263 0 20.48 9.217 20.48 20.48s-9.217 20.48-20.48 20.48l-143.36 0.003c-4.097 0-8.193-1.023-11.263-3.073l-179.2-111.616c-14.337-7.167-31.743-3.073-41.983 10.24-6.143 7.167-8.193 16.383-7.167 25.6 1.023 9.217 5.12 17.406 12.286 22.526l246.784 164.864c14.337 10.24 31.743 15.36 49.154 15.36h107.52l209.92-114.679c-1.023 0-1.023 0 0 0zM487.426 222.891c-5.12-6.143-12.286-9.217-20.48-10.24h-3.073c-2.047 0-4.097 0-6.143-1.023h-101.376c-11.263 0-20.48-9.217-20.48-20.48s9.217-20.48 20.48-20.48h143.36c4.097 0 8.193 1.023 11.263 3.073l179.2 112.64c14.337 7.167 31.743 3.073 41.983-10.24 6.143-7.167 8.193-16.383 7.167-25.6-1.023-9.217-5.12-17.406-12.286-22.526l-247.799-164.864c-14.337-10.24-31.743-15.36-49.154-15.36h-107.52l-207.872 114.688 135.168 93.184c14.337 10.24 31.743 15.36 50.177 15.36h161.792c16.383 0 30.72-11.263 31.743-26.623 1.027-7.167-1.023-15.36-6.143-21.503zM952.322 234.154c0-29.697-16.383-57.343-43.006-71.68l-358.4-196.608c-24.577-13.314-54.274-13.314-78.846 0l-74.754 40.96h33.794c25.6 0 50.177 7.167 71.68 21.503l246.784 165.888 1.023 1.023c16.383 12.286 25.6 30.72 28.674 50.177 2.047 19.457-3.073 38.914-15.36 55.297-22.526 29.697-62.463 37.886-95.232 20.48-1.023-1.023-2.047-1.023-3.073-2.047l-131.072-81.92v11.263c-4.097 35.84-35.84 63.486-72.703 63.486l-161.792 0.003c-26.623 0-52.223-7.167-73.726-22.526l-142.336-98.304c-8.19 12.286-12.286 27.646-12.286 43.006v385.024c0 29.697 16.383 57.343 43.006 71.68l358.4 196.608c11.263 7.167 25.6 10.24 38.914 10.24s27.646-3.073 38.914-10.24l74.754-40.96h-32.766c-25.6 0-50.177-7.167-71.68-21.503l-247.817-165.888-1.023-1.023c-16.383-12.286-25.6-30.72-28.674-50.177-2.047-19.457 3.073-38.914 15.36-55.297 14.337-19.457 36.863-29.697 59.394-29.697 12.286 0 24.577 3.073 34.817 9.217 1.023 1.023 2.047 1.023 3.073 2.047l133.12 81.92v-11.263c4.097-35.84 35.84-63.486 72.703-63.486h161.792c26.623 0 52.223 7.167 73.726 21.503l142.336 98.304c7.167-12.286 12.286-26.623 12.286-41.983zM658.432 511.659c-3.073 0-62.463 6.143-104.448-33.794-10.24-10.24-19.457-23.554-27.646-38.914-10.24 16.383-22.526 28.674-35.84 38.914-52.223 37.886-122.88 26.623-125.952 26.623-11.263-2.047-19.457-12.286-17.406-23.554 1.023-2.047 11.263-73.726 63.486-111.616 20.48-15.36 46.080-24.577 75.777-27.646h6.143c15.36 0 29.697 7.167 39.937 19.457 8.193-6.143 17.406-10.24 26.623-10.24 3.073 0 6.143 0 9.217 1.023 24.577 5.12 45.057 15.36 61.44 30.72 40.96 38.914 47.103 103.424 47.103 106.496 1.020 11.263-7.17 21.503-18.434 22.53zM500.736 387.755c-2.047-2.047-5.12-5.12-10.24-4.097-22.526 2.047-40.96 9.217-55.297 19.457-23.554 16.383-35.84 43.006-41.983 62.463 20.48 0 50.177-4.097 72.703-20.48 14.337-10.24 26.623-26.623 35.84-47.103 2.047-4.093 0-8.19-1.023-10.24zM601.088 411.309c-11.263-10.24-24.577-17.406-41.983-20.48 0 0-1.023 0-2.047 1.023-1.023 2.047-3.073 6.143-1.023 10.24 6.143 19.457 15.36 34.817 25.6 45.057 15.36 14.337 34.817 19.457 49.154 21.503-4.1-17.406-13.314-41.983-29.7-57.343z" />
<glyph unicode="&#xe907;" glyph-name="food-sovereignty" d="M929.792 726.699l-358.4 196.608c-36.864 20.48-80.896 20.48-117.76 0l-358.4-196.608c-39.936-21.504-64.512-62.464-64.512-107.52v-385.024c0-45.056 24.576-86.016 63.488-107.52l358.4-196.608c18.432-10.24 38.912-15.36 59.392-15.36s40.96 5.12 59.392 15.36l71.68 39.936c2.048 1.024 4.096 2.048 5.12 3.072l281.6 154.624c38.912 21.504 63.488 62.464 63.488 107.52v384c0 45.056-24.576 86.016-63.488 107.52zM550.912-34.133c-24.576-13.312-54.272-13.312-78.848 0l-62.464 34.816c0 10.24 0 21.504 0 31.744-1.024 100.352-2.048 150.528-23.552 171.008-40.96 38.912-97.28 110.592-112.64 151.552-11.264 27.648-19.456 54.272-7.168 65.536 30.72 28.672 65.536 56.32 78.848 62.464 14.336-6.144 37.888-19.456 47.104-25.6 13.312-7.168 27.648-15.36 36.864-21.504-3.072-8.192-8.192-14.336-16.384-17.408-17.408-7.168-41.984-4.096-54.272 5.12-1.024 0-1.024 1.024-2.048 1.024-9.216 7.168-21.504 5.12-28.672-4.096s-5.12-21.504 4.096-28.672c1.024-1.024 2.048-1.024 2.048-2.048 14.336-10.24 27.648-19.456 39.936-27.648 49.152-31.744 71.68-47.104 65.536-117.76 0-5.12 1.024-9.216 3.072-12.288 0-2.048 0-3.072 0-5.12 1.024-11.264 11.264-19.456 22.528-18.432 10.24 1.024 20.48 4.096 29.696 8.192 14.336-9.216 33.792-13.312 51.2-13.312 8.192 0 16.384 1.024 23.552 3.072 37.888 11.264 53.248 37.888 65.536 59.392l2.048 3.072c24.576 40.96 29.696 87.040 15.36 128-5.12 12.288-11.264 24.576-19.456 33.792 11.264-8.192 23.552-12.288 36.864-12.288 2.048 0 4.096 0 7.168 0 7.168 1.024 13.312 3.072 19.456 6.144l4.096-90.112c0-55.296-27.648-129.024-73.728-153.6-6.144-4.096-10.24-10.24-10.24-17.408v-161.792l-65.536-35.84zM512 537.259v-5.12c-4.096-6.144-8.192-13.312-11.264-21.504-10.24 9.216-22.528 13.312-34.816 15.36 0 1.024 0 2.048 0 3.072v79.872c0 12.288 9.216 22.528 20.48 24.576 12.288 1.024 23.552-8.192 24.576-20.48 0-1.024 0-1.024 0-2.048v-69.632c1.024-2.048 1.024-3.072 1.024-4.096zM423.936 378.539c2.048 1.024 4.096 1.024 5.12 2.048 21.504 9.216 34.816 26.624 39.936 48.128 10.24-2.048 18.432-7.168 23.552-10.24 12.288-8.192 27.648-9.216 40.96-2.048 9.216 5.12 26.624 11.264 44.032 6.144 14.336-5.12 27.648-19.456 34.816-38.912 10.24-28.672 6.144-62.464-12.288-93.184l-2.048-3.072c-11.264-18.432-20.48-34.816-41.984-40.96-14.336-4.096-39.936 2.048-45.056 9.216-3.072 4.096-8.192 7.168-14.336 8.192s-11.264-1.024-15.36-5.12c0 0-1.024 0-1.024-1.024 3.072 65.536-21.504 95.232-56.32 120.832zM465.92 482.987v1.024c7.168-3.072 12.288-8.192 16.384-15.36-6.144 2.048-13.312 3.072-19.456 3.072 2.048 2.048 3.072 6.144 3.072 11.264zM577.536 615.083c0 0 0 0 0 0 11.264 1.024 24.576-7.168 25.6-20.48 0 0 0 0 0 0 0-1.024 0-1.024 0-2.048v-59.392c0 0 0 0 0 0v-59.392c0-5.12 2.048-10.24 5.12-13.312 2.048-4.096 4.096-8.192 7.168-12.288-7.168 6.144-16.384 11.264-24.576 13.312-13.312 4.096-26.624 5.12-37.888 4.096v1.024c9.216 3.072 16.384 8.192 23.552 14.336 23.552 23.552 22.528 56.32 22.528 59.392-1.024 9.216-6.144 16.384-14.336 18.432-3.072 1.024-16.384 4.096-30.72 1.024v30.72c0 5.12 3.072 11.264 7.168 16.384 3.072 3.072 7.168 6.144 11.264 7.168 2.048 0 3.072 1.024 5.12 1.024zM424.96 485.035c-4.096 2.048-8.192 5.12-13.312 7.168-2.048 1.024-17.408 10.24-33.792 18.432 1.024 2.048 1.024 4.096 1.024 6.144v99.328c0 12.288 9.216 22.528 20.48 24.576 6.144 1.024 12.288-1.024 16.384-5.12s7.168-9.216 8.192-15.36c0-1.024 0-1.024 0-2.048v-133.12zM645.12 488.107v55.296c0 12.288 10.24 22.528 22.528 22.528 1.024 0 1.024 0 2.048 0 12.288-1.024 21.504-12.288 21.504-24.576 0 0 0-1.024 0-1.024l2.048-55.296c0-13.312-9.216-23.552-21.504-25.6-6.144-1.024-12.288 1.024-17.408 5.12s-8.192 10.24-8.192 16.384c0 1.024 0 1.024 0 2.048-1.024 2.048-1.024 4.096-1.024 5.12zM952.32 234.155c0-29.696-16.384-57.344-43.008-71.68l-252.928-139.264v128c55.296 37.888 83.968 118.784 83.968 184.32l-6.144 150.528c0 0 0 0 0 0s0 0 0 0l-2.048 56.32c0 32.768-24.576 60.416-57.344 64.512-2.048 0-4.096 0-6.144 0-8.192 0-16.384-2.048-23.552-5.12-5.12 32.768-33.792 54.272-67.584 53.248-1.024 0-1.024 0-2.048 0-11.264 0-22.528-4.096-31.744-10.24-12.288 19.456-35.84 31.744-60.416 28.672-12.288-2.048-23.552-7.168-32.768-14.336-2.048 2.048-4.096 4.096-6.144 6.144-13.312 11.264-29.696 15.36-47.104 14.336-32.768-4.096-57.344-32.768-57.344-65.536v-92.16c-15.36-4.096-43.008-19.456-100.352-73.728-33.792-30.72-15.36-78.848-3.072-110.592 20.48-54.272 86.016-131.072 122.88-165.888 10.24-11.264 10.24-83.968 11.264-141.312 0-3.072 0-6.144 0-8.192l-257.024 140.288c-26.624 14.336-41.984 41.984-41.984 71.68v385.024c0 29.696 16.384 57.344 41.984 71.68l358.4 196.608c12.288 7.168 25.6 10.24 39.936 10.24s26.624-3.072 38.912-10.24l358.4-196.608c26.624-14.336 43.008-41.984 43.008-71.68v-385.024z" />
<glyph unicode="&#xe908;" glyph-name="vegan" d="M512.51-85.313c-20.477 0-40.955 5.121-59.391 15.356l-358.391 196.603c-38.913 21.507-63.485 62.463-63.485 107.519v385.014c0 45.056 24.577 86.012 63.485 107.519l358.391 196.603c36.863 20.477 80.89 20.477 117.754 0l358.391-196.603c38.913-21.507 63.485-62.463 63.485-107.519v-385.014c0-45.056-24.577-86.012-63.485-107.519l-358.391-196.603c-17.406-10.243-37.886-15.364-58.363-15.364zM512.51 897.701c-13.314 0-26.622-3.071-39.935-10.243l-358.391-196.603c-26.622-14.335-41.984-41.984-41.984-71.676v-385.014c0-29.692 16.385-57.341 41.984-71.676l358.391-196.603c24.577-13.314 54.271-13.314 78.848 0l358.391 196.603c26.622 14.335 43.006 41.984 43.006 71.676v385.014c0 29.692-16.385 57.341-43.006 71.676l-358.391 196.603c-12.293 7.171-25.599 10.243-38.913 10.243zM392.235 179.708c-3.071 0-6.143 1.021-9.214 2.050-91.134 48.127-147.454 142.333-147.454 244.73 0 28.671 4.093 56.32 12.285 82.94 3.071 11.264 15.356 16.385 25.599 13.314 11.264-3.071 16.385-15.356 13.314-25.599-6.143-22.527-10.243-46.077-10.243-70.656 0-87.042 48.127-166.91 124.924-207.866 10.243-5.121 13.314-17.406 8.193-27.649-3.071-7.165-10.243-11.264-17.406-11.264zM534.349 150.905c-10.243 0-19.457 8.193-20.477 18.428-1.028 11.271 8.186 21.507 19.45 22.534 120.825 10.243 215.034 113.661 215.034 234.49 0 11.264 9.214 20.477 20.477 20.477s20.477-9.214 20.477-20.477c0-142.333-111.611-263.161-252.922-275.449h-2.043zM347.48 602.342c-6.143 0-11.264 2.050-15.356 7.171-7.171 8.193-6.143 21.507 2.050 28.671 50.176 41.984 112.641 64.512 178.174 64.512 9.214 0 18.428 0 28.671-1.021 11.264-1.021 19.457-11.264 18.428-22.527-1.021-11.264-11.264-19.457-22.527-18.428-63.485 6.143-126.974-13.314-176.124-54.271-4.1-2.064-8.193-4.107-13.314-4.107zM512.507 58.043c-203.771 0-368.63 164.86-368.63 368.63s164.86 368.63 368.63 368.63c37.886 0 74.748-5.121 109.569-16.385 11.264-3.071 16.385-14.335 13.314-25.599s-15.356-16.385-25.599-13.314c-31.742 10.243-64.512 14.335-97.275 14.335-180.217 0-327.672-147.454-327.672-327.672s147.454-327.672 327.672-327.672 327.672 147.454 327.672 327.672c0 30.721-4.093 61.442-13.314 91.134-3.071 11.264 3.071 22.527 14.335 25.599s22.527-3.071 25.599-14.335c9.214-32.771 14.335-67.585 14.335-102.397 0-203.771-164.86-368.63-368.63-368.63zM585.613 393.208c-27.649 0-53.248 12.285-70.656 34.814-8.193 11.264-14.335 23.549-17.406 36.863-3.071 15.356-2.050 31.742 3.071 47.106 19.457 59.391 49.149 106.49 87.042 141.31 101.375 91.134 237.562 63.485 243.706 61.442 9.214-2.050 15.356-9.214 16.385-18.428 0-6.143 8.193-139.261-93.184-229.371-38.913-34.814-89.084-58.37-149.504-71.676-7.171-2.057-13.314-2.057-19.457-2.057zM776.072 678.896c-43.006 0-108.539-9.214-161.788-56.32-32.771-29.692-58.37-71.676-75.776-123.905-3.071-8.193-3.071-17.406-1.021-25.599 2.050-7.171 5.121-14.335 9.214-20.477 11.264-15.356 30.721-21.507 49.149-17.406 53.248 11.264 98.305 31.742 131.068 61.442 66.554 60.413 77.82 144.382 79.87 180.217-8.193 1.021-18.428 2.050-30.714 2.050zM466.294 135.772c-10.243 0-19.457 7.171-20.477 17.406 0 4.093-52.221 388.086-228.346 449.524-10.243 4.093-16.385 15.356-12.285 26.622 4.093 10.243 15.356 16.385 26.622 12.285 129.019-45.049 196.603-227.322 229.371-354.295 54.271 277.497 224.25 311.288 232.442 312.312 11.264 2.050 21.507-5.121 23.549-16.385 2.050-11.264-5.121-21.507-16.385-23.549-8.193-2.050-196.603-41.984-215.034-403.445 0.007-11.264-8.186-20.477-19.45-20.477z" />
<glyph unicode="&#xe909;" glyph-name="vegetarian" d="M512.516-85.316c-20.478 0-40.954 5.121-59.39 15.357l-358.385 196.6c-38.912 21.506-63.484 62.462-63.484 107.518v385.009c0 45.056 24.577 86.010 63.484 107.518l358.385 196.6c36.862 20.478 80.889 20.478 117.752 0l358.385-196.6c38.912-21.506 63.484-62.462 63.484-107.518v-385.009c0-45.056-24.577-86.010-63.484-107.518l-358.385-196.6c-17.406-10.243-37.885-15.364-58.361-15.364zM512.516 897.685c-13.314 0-26.621-3.072-39.934-10.243l-358.385-196.6c-26.621-14.335-41.984-41.984-41.984-71.675v-385.009c0-29.691 16.386-57.34 41.984-71.675l358.385-196.6c24.577-13.314 54.27-13.314 78.846 0l358.385 196.6c26.621 14.335 43.006 41.984 43.006 71.675v385.009c0 29.691-16.386 57.34-43.006 71.675l-358.385 196.6c-12.292 7.171-25.599 10.243-38.912 10.243zM481.889 365.346c-2.050 0-5.121 0-7.171 1.022-10.243 4.092-15.357 16.386-11.263 26.621 53.248 136.186 149.501 183.289 153.593 185.337 10.243 5.121 22.527 0 27.649-10.243s0-22.527-9.214-27.649c-1.022 0-86.010-43.006-133.117-162.808-4.092-7.157-12.285-12.278-20.478-12.278zM481.717 150.855c-11.263 0-20.478 9.214-20.478 20.478v212.983c0 11.263 9.214 20.478 20.478 20.478s20.478-9.214 20.478-20.478v-212.983c0-11.263-9.214-20.478-20.478-20.478zM534.281 372.687c-15.357 0-29.691 4.092-43.006 11.263-20.478 11.263-34.813 30.721-40.954 53.248-4.092 15.357-4.092 30.721 0 46.076 15.357 58.37 40.954 105.468 76.797 140.281 91.132 91.132 236.534 91.132 242.678 91.132 11.263 0 20.478-9.214 20.478-20.478 0-6.142 0-150.521-91.132-242.678-35.842-35.842-82.939-61.442-141.308-76.797-8.193-1.029-15.364-2.050-23.55-2.050zM747.264 672.707c-40.954-4.092-132.087-18.427-191.48-77.819-30.721-30.721-52.22-71.675-66.554-122.874-2.050-8.193-2.050-16.386 0-24.577 3.072-12.285 11.263-21.506 21.506-28.671 11.263-6.142 23.55-8.193 35.842-4.092 51.197 13.314 92.153 35.842 122.874 66.554 60.405 60.412 74.74 150.521 77.812 191.48zM431.253 300.732c-6.142 0-12.285 1.022-18.427 2.050-44.026 11.263-80.889 31.741-107.518 58.37-69.626 69.626-69.626 179.193-69.626 183.289 0 11.263 9.214 20.478 20.478 20.478 4.092 0 114.682 0 185.337-69.626 27.649-26.621 47.106-62.462 59.39-106.488 6.142-24.577 0-50.176-17.406-67.583-15.364-13.321-33.797-20.485-52.226-20.485zM277.659 522.931c3.072-31.741 15.357-92.153 56.319-132.087 21.506-21.506 52.22-37.885 89.082-48.126 10.243-3.072 21.506 0 28.671 8.193 7.171 7.171 10.243 17.406 7.171 27.649-10.243 36.862-26.621 66.554-48.126 88.061-39.942 40.95-101.373 52.213-133.117 56.312zM481.579 283.165c-11.263 0-20.478 9.214-20.478 20.478 0 34.813-62.462 86.010-93.182 105.468-9.214 6.142-12.285 18.427-6.142 28.671s18.427 12.285 28.671 6.142c11.263-7.164 111.61-73.725 111.61-140.281 0-11.263-9.214-20.478-20.478-20.478zM512.544 149.934c-114.682 0-215.031 68.606-257.013 175.101-4.092 10.243 1.022 22.527 11.263 26.621 10.243 4.092 22.527-1.022 26.621-11.263 35.842-91.132 121.853-149.501 219.127-149.501 130.045 0 235.51 105.468 235.51 235.51 0 12.285-1.022 24.577-3.072 36.862-2.050 11.263 6.142 21.506 17.406 23.55 11.263 2.050 21.506-6.142 23.55-17.406 2.050-14.335 3.072-28.671 3.072-43.006 0-152.572-123.895-276.469-276.469-276.469zM329 584.906c-5.121 0-10.243 2.050-14.335 6.142-8.193 8.193-8.193 20.478 0 28.671 52.22 54.27 122.874 83.968 198.648 83.968 11.263 0 20.478-9.214 20.478-20.478s-9.214-20.478-20.478-20.478c-64.511 0-123.902-25.599-168.95-71.675-5.128-4.099-10.25-6.15-15.364-6.15zM512.51 58.039c-203.768 0-368.624 164.858-368.624 368.624s164.858 368.624 368.624 368.624c50.176 0 98.304-10.243 143.35-28.671 10.243-4.092 15.357-16.386 11.263-26.621-4.092-10.243-16.386-15.357-26.621-11.263-40.954 17.406-82.939 25.599-127.995 25.599-180.215 0-327.667-147.452-327.667-327.667s147.452-327.667 327.667-327.667 327.667 147.452 327.667 327.667c0 53.248-12.285 103.417-35.842 150.521-5.121 10.243-1.022 22.527 9.214 27.649 10.243 5.121 22.527 1.022 27.649-9.214 26.621-52.22 40.954-110.587 40.954-168.95-1.014-203.786-165.872-368.644-369.648-368.644z" />
<glyph unicode="&#xe90a;" glyph-name="ecological-footprint" d="M202.743 508.527c-52.43 0-95.078 42.65-95.078 95.078s42.66 95.078 95.078 95.078c52.42 0 95.078-42.66 95.078-95.078-0.003-52.42-42.663-95.078-95.078-95.078zM202.743 657.716c-29.84 0-54.12-24.28-54.12-54.12s24.28-54.12 54.12-54.12 54.12 24.28 54.12 54.12c-0.003 29.84-24.283 54.12-54.12 54.12zM367.616 623.83c-39.69 0-71.986 32.297-71.986 71.986s32.297 71.986 71.986 71.986 71.986-32.297 71.986-71.986-32.297-71.986-71.986-71.986zM367.616 726.844c-17.11 0-31.026-13.917-31.026-31.026s13.917-31.026 31.026-31.026 31.026 13.917 31.026 31.026c0 17.11-13.917 31.026-31.026 31.026zM520.354 657.417c-36.003 0-65.29 29.286-65.29 65.28s29.286 65.28 65.29 65.28c36.003 0 65.28-29.286 65.28-65.28s-29.277-65.28-65.28-65.28zM520.354 747.034c-13.423 0-24.33-10.906-24.33-24.32s10.906-24.32 24.33-24.32c13.414 0 24.32 10.906 24.32 24.32s-10.906 24.32-24.32 24.32zM775.996 559.19c-32.503 0-58.94 26.44-58.94 58.93s26.44 58.93 58.94 58.93c32.49 0 58.93-26.44 58.93-58.93 0.003-32.49-26.436-58.93-58.93-58.93zM775.996 636.103c-9.913 0-17.98-8.070-17.98-17.97 0-9.903 8.070-17.97 17.98-17.97 9.913 0 17.97 8.070 17.97 17.97 0.003 9.9-8.057 17.97-17.97 17.97zM656.154 627.209c-32.49 0-58.93 26.44-58.93 58.94 0 32.49 26.44 58.93 58.93 58.93 32.503 0 58.94-26.44 58.94-58.93 0-32.5-26.44-58.94-58.94-58.94zM656.154 704.122c-9.913 0-17.97-8.070-17.97-17.97 0-9.913 8.060-17.98 17.97-17.98 9.913 0 17.98 8.070 17.98 17.98s-8.070 17.97-17.98 17.97zM929.536 726.75l-358.409 196.762c-37.017 20.317-81.233 20.317-118.263 0l-358.4-196.762c-39.32-21.587-63.743-62.863-63.743-107.716v-384.734c0-44.86 24.423-86.127 63.743-107.716l358.4-196.753c18.513-10.167 38.83-15.247 59.137-15.247s40.623 5.080 59.137 15.247l358.391 196.753c39.32 21.583 63.753 62.85 63.753 107.708v384.742c0 44.85-24.433 86.127-63.743 107.716zM551.424-34.27c-9.44-5.18-19.59-8.347-29.9-9.553v274.236c7.773-3.173 16.096-4.823 24.607-4.823 5.857 0 11.786 0.777 17.693 2.357 40.51 10.873 73.647 28.98 98.5 53.833 64.040 64.030 64.030 164.983 64 169.25-0.083 11.193-9.143 20.244-20.326 20.326-4.187-0.093-105.25 0-169.25-64-24.126-24.117-41.84-56.103-52.786-95.010-0.88 1.063-1.71 2.18-2.61 3.217-46.757 53.423-120.533 53.31-123.836 53.39-11.193-0.103-20.233-9.163-20.307-20.347-0.020-3.45-0.030-85.113 45.66-137.327 18.137-20.707 42.333-35.83 71.937-44.924 4.773-1.463 9.637-2.18 14.45-2.18 3.83 0 7.597 0.613 11.303 1.507v-203.699c-2.693 1.127-5.377 2.323-7.977 3.747l-38.88 21.34c-16.486 50.033-47.197 89.071-79.81 130.15-10.443 13.16-21.246 26.756-32.4 41.76l-17.614 22.077c-32.194 45.17-49.213 98.449-49.213 154.129 0 146.586 119.253 265.839 265.839 265.839 146.577 0 265.839-119.236 265.847-265.813-0.010-60.314-6.217-154.086-35.36-259.934zM522.467 298.24c8.98 33.483 23.52 60.447 43.233 80.16 35.78 35.78 88.61 46.94 118.076 50.423-3.48-29.48-14.643-82.3-50.423-118.076-19.703-19.703-46.673-34.254-80.16-43.233-9.063-2.437-17.97-0.143-24.413 6.317-6.437 6.45-8.753 15.337-6.313 24.41zM475.32 207.804c-3.943-3.687-7.373-2.643-8.5-2.283-22.21 6.82-40.090 17.827-53.127 32.736-22.65 25.876-30.863 63.52-33.843 87.398 20.040-3.657 49.633-13.027 70.657-37.060 13.363-15.276 23.267-36.363 29.45-62.66 1.957-8.343-1.277-14.98-4.637-18.133zM952.317 234.294c0-29.91-16.28-57.417-42.497-71.813l-109.67-60.21c22.14 94.601 27.167 177.357 27.167 232.917v0.143c-0.083 169.105-137.685 306.671-306.807 306.671-169.173 0-306.799-137.626-306.799-306.799 0-64.45 19.773-126.14 57.17-178.389l18.156-22.804c11.12-14.97 22.13-28.837 32.777-42.25 19.723-24.834 37.743-47.666 52.020-71.813l-259.661 142.541c-26.217 14.39-42.497 41.903-42.497 71.813v384.742c0 29.9 16.28 57.417 42.497 71.813l358.4 196.753c12.34 6.77 25.887 10.156 39.423 10.156s27.083-3.39 39.423-10.167l358.4-196.753c26.217-14.39 42.497-41.903 42.497-71.804z" />
<glyph unicode="&#xe90b;" glyph-name="fair-trade" d="M569.651 333.927c-6.707 0-13.28 3.287-17.203 9.33-6.163 9.493-3.46 22.17 6.030 28.333 71.507 46.417 148.659 37.293 216.73 29.237 48.21-5.693 93.739-11.080 129.579 4.28 10.403 4.473 22.447-0.36 26.89-10.754 4.463-10.403-0.36-22.437-10.754-26.89-45.917-19.68-96.734-13.69-150.528-7.31-64.163 7.567-130.509 15.433-189.619-22.927-3.43-2.227-7.3-3.3-11.12-3.3zM569.651 398.345c-6.707 0-13.28 3.287-17.203 9.33-6.163 9.493-3.46 22.17 6.030 28.333 71.507 46.407 148.685 37.283 216.738 29.237 48.2-5.723 93.73-11.090 129.57 4.27 10.403 4.453 22.447-0.37 26.89-10.754 4.463-10.403-0.36-22.437-10.754-26.89-45.917-19.68-96.725-13.67-150.519-7.31-64.183 7.587-130.526 15.433-189.636-22.916-3.44-2.227-7.3-3.3-11.12-3.3zM695.279 486.554c-37.263 0-66.447 21.647-66.447 49.287 0 27.637 29.193 49.287 66.447 49.287s66.436-21.647 66.436-49.287c0.010-27.64-29.174-49.287-66.436-49.287zM670.036 535.841c1.987-2.807 10.873-8.327 25.254-8.327 14.377 0 23.257 5.52 25.24 8.327-1.987 2.807-10.873 8.327-25.24 8.327-14.367-0.003-23.267-5.523-25.254-8.327zM720.859 535.254h0.103zM832.154 541.099c-37.263 0-66.447 21.647-66.447 49.287 0 27.637 29.193 49.287 66.447 49.287s66.447-21.647 66.447-49.287-29.193-49.287-66.447-49.287zM806.903 590.382c1.987-2.807 10.873-8.327 25.254-8.327 14.377 0 23.257 5.52 25.254 8.327-1.987 2.807-10.873 8.327-25.254 8.327s-23.27-5.52-25.254-8.327zM857.733 589.809h0.103zM929.536 726.75l-358.409 196.762c-37.017 20.317-81.233 20.317-118.263 0l-358.4-196.762c-39.32-21.587-63.743-62.863-63.743-107.716v-384.734c0-44.86 24.423-86.127 63.743-107.716l358.4-196.753c18.513-10.167 38.83-15.247 59.137-15.247s40.623 5.080 59.137 15.247l358.391 196.753c39.32 21.583 63.753 62.85 63.753 107.708v384.742c0 44.85-24.433 86.127-63.743 107.716zM114.176 690.837l358.4 196.753c12.34 6.783 25.887 10.17 39.423 10.17s27.083-3.39 39.423-10.167l358.4-196.753c26.217-14.39 42.497-41.903 42.497-71.804v-363.81l-76.34 55.223c-15.523 10.66-33.67 16.294-52.49 16.294l-106.718-0.003c-15.76 0-30.557-6.153-41.677-17.306-9.78-9.81-15.38-22.507-16.63-36.177l-71.977 44.676c-0.777 0.583-1.607 1.107-2.5 1.577-11.326 6.093-24.126 8.1-36.937 5.787-14.21-2.54-26.653-10.74-35.050-22.026-8.397 11.293-20.84 19.487-35.030 22.026-12.85 2.303-25.61 0.297-36.947-5.787-0.88-0.47-1.71-1.003-2.5-1.567l-20.347-12.637c14.91 35.84 16.753 74.167 4.27 108.237-11.604 31.654-34.56 56.044-61.4 65.24-23.48 8.060-45.956 4.043-62.537-1.71 0.143 1.783 0.237 3.737 0.41 5.427 20.994 1.74 38.217 9.033 51.403 21.81 25.96 25.17 24.647 60.817 24.413 64.81-0.513 8.703-6.473 15.963-14.56 18.41-5.447 1.71-33.516 9.123-60.457-10.156-13.7-9.81-24.187-24.577-31.397-44.153-15.4 14.633-34.633 19.476-51.99 20.090-11.427 0.533-20.817-8.447-21.216-19.763s8.447-20.817 19.763-21.216c18.37-0.647 29.706-8.95 35.9-26.807-12.85 3.657-27.823 5.283-43.817 1.69-47.944-10.784-81.44-58.633-81.45-116.343 0-27.69 3.083-50.964 9.277-70.706l-62.11-44.933v363.81c0 29.9 16.28 57.413 42.497 71.8zM170.363 321.514c-3.267 13.877-4.893 30.176-4.893 49.357 0 42.854 24.893 70.86 49.47 76.39 18.237 4.087 35.747-5.027 44.553-10.833 12.473-8.233 28.497-9.114 41.8-2.293 9.39 4.813 27.76 11.99 45.466 5.897 15.287-5.243 28.826-20.42 36.23-40.6 10.887-29.687 6.46-64.593-12.177-95.838l-2.070-3.533c-2.223-3.8-4.433-7.463-6.677-11.050-2.907 7.537-7.27 14.5-13.146 20.396-11.12 11.16-25.927 17.306-41.677 17.306h-106.735c-10.353 0.020-20.46-1.843-30.147-5.2zM76.215 207.961l94.985 68.72c8.663 5.95 18.8 9.093 29.307 9.093h106.718c4.783 0 9.287-1.873 12.667-5.263s5.233-7.897 5.213-12.676v-1.197c-0.040-9.81-8.060-17.796-17.88-17.796h-69.367c-11.303 0-20.48-9.177-20.48-20.48s9.177-20.48 20.48-20.48h83.947c10.516 0 20.797 2.93 29.757 8.49l108.809 67.534c2.2 0.993 5.407 1.793 9.39 1.077 6.153-1.097 11.303-6.43 12.247-12.667 0.83-5.54-1.157-10.873-5.337-14.377l-162.031-108.365c-8.47-5.623-18.32-8.59-28.477-8.59l-130.944-0.003c-0.543 0-1.053-0.123-1.597-0.163l-39.453 21.657c-18.217 10.016-31.467 26.41-37.96 45.487zM551.419-34.266c-24.68-13.536-54.16-13.536-78.837 0l-244.634 134.298h58.214c18.247 0 35.933 5.337 51.19 15.473l162.807 108.885c0.41 0.267 0.81 0.553 1.187 0.85 4.087 3.173 7.65 6.87 10.65 10.927 3-4.057 6.563-7.753 10.65-10.927 0.38-0.297 0.777-0.583 1.187-0.85l162.867-108.919c15.197-10.097 32.89-15.433 51.127-15.433h58.203zM909.819 162.487l-39.453-21.657c-0.533 0.040-1.043 0.163-1.597 0.163h-130.927c-10.156 0-20.010 2.97-28.426 8.55l-162.082 108.382c-4.177 3.513-6.173 8.836-5.337 14.386 0.943 6.227 6.093 11.56 12.247 12.657 4.023 0.697 7.19-0.093 9.38-1.063l108.809-67.543c8.95-5.56 19.24-8.49 29.757-8.49h83.936c11.303 0 20.48 9.177 20.48 20.48s-9.177 20.48-20.48 20.48h-69.356c-9.82 0-17.836 7.977-17.88 17.89l-0.010 1.097c-0.020 4.793 1.833 9.287 5.223 12.687 3.38 3.39 7.873 5.263 12.657 5.263h106.718c10.506 0 20.643-3.143 28.896-8.797l95.394-69.017c-6.487-19.060-19.737-35.464-37.954-45.47z" />
<glyph unicode="&#xe90c;" glyph-name="humane-treatment" d="M442.223 37.609h-164.422c-11.305 0-20.475 9.177-20.475 20.475 0 11.305 9.177 20.475 20.475 20.475l164.422 0.007c20.231 0 39.828 5.92 56.669 17.111l277.417 185.566c8.356 6.678 13.69 16.168 15.040 26.801 1.386 10.862-1.542 21.59-8.241 30.245-11.977 15.468-32.908 20.239-50.313 11.74-0.121-0.079-0.236-0.157-0.357-0.229l-201.015-124.814c-3.236-2.007-6.977-3.086-10.791-3.086h-160.927c-11.305 0-20.475 9.177-20.475 20.475 0 11.305 9.177 20.475 20.475 20.475h155.078l194.36 120.686c0.857 0.657 1.771 1.25 2.742 1.771 35.392 19.075 78.978 9.848 103.603-21.961 27.652-35.707 21.104-87.262-14.611-114.902-0.379-0.286-0.757-0.571-1.15-0.829l-278.112-186.024c-23.632-15.69-51.056-23.973-79.378-23.973zM62.812 200.633c-6.513 0-12.911 3.092-16.883 8.856-6.406 9.32-4.057 22.060 5.249 28.48l162.849 112.186c23.996 16.555 52.112 25.318 81.3 25.318h181.902c40.499 0 75.138-30.451 78.843-69.324 2.007-20.331-4.057-40.321-17.054-56.169-13.005-15.847-31.409-25.709-51.827-27.716-2.507-0.242-5.013-0.364-7.535-0.364-11.305 0-20.475 9.177-20.475 20.475 0 11.305 9.177 20.475 20.475 20.475 1.179 0 2.363 0.064 3.549 0.171 9.498 0.942 18.089 5.528 24.153 12.94 6.085 7.399 8.898 16.718 7.956 26.232-1.728 18.168-18.462 32.33-38.086 32.33h-181.888c-20.845-0.007-40.936-6.256-58.083-18.083l-162.849-112.193c-3.549-2.436-7.606-3.613-11.598-3.613zM523.507-85.323c-20.31 0-40.614 5.078-59.126 15.247l-197.451 108.387c-9.912 5.435-13.534 17.882-8.091 27.81 5.428 9.912 17.876 13.548 27.81 8.091l197.451-108.394c24.667-13.534 54.125-13.534 78.813 0l358.335 196.718c26.217 14.384 42.5 41.877 42.5 71.788v384.68c0 29.908-16.276 57.403-42.477 71.801l-358.354 196.701c-24.667 13.526-54.125 13.548-78.813 0l-204.123-112.043c-9.919-5.457-22.367-1.8-27.795 8.091-5.449 9.919-1.821 22.367 8.099 27.81l204.104 112.036c37.043 20.346 81.243 20.325 118.244 0l358.335-196.718c39.307-21.567 63.731-62.831 63.731-107.679v-384.662c0-44.856-24.431-86.113-63.745-107.694l-358.316-196.718c-18.497-10.162-38.82-15.24-59.118-15.24zM62.79 213.833c-11.305 0-20.475 9.177-20.475 20.475v355.666c0 11.305 9.177 20.475 20.475 20.475 11.305 0 20.475-9.177 20.475-20.475v-355.666c0-11.305-9.17-20.475-20.475-20.475zM62.797 299.687c-5.885 0-11.734 2.528-15.776 7.42-7.22 8.712-6.013 21.602 2.7 28.824 13.169 10.927 130.606 106.888 197.158 115.865 20.025 2.686 55.061 1.442 95.654-0.007 60.369-2.157 151.586-5.435 177.118 9.256 0.707 0.4 1.436 0.757 2.171 1.079 3.278 1.471 19.354 9.585 17.497 25.188-15.047 20.475-94.275 126.112-170.363 186.846-54.454 43.463-111.494 44.514-174.326 3.242-9.485-6.213-22.152-3.571-28.36 5.878-6.206 9.462-3.571 22.152 5.878 28.36 77.351 50.771 154.228 48.876 222.332-5.47 88.584-70.687 176.924-193.281 180.64-198.474 1.463-2.013 2.528-4.299 3.163-6.699 10.906-41.328-20.29-67.459-39.27-76.036-33.571-18.447-103.333-17.489-197.962-14.090-37.101 1.329-72.129 2.578-88.706 0.336-46.584-6.278-143.203-79.222-176.504-106.802-3.821-3.157-8.448-4.699-13.048-4.699zM471.896 412.581c-6.391 0-12.661 2.971-16.668 8.556-27.701 38.693-10.962 65.974-2.486 75.909 22.496 26.345 70.395 34.171 104.689 17.039 10.112-5.057 14.219-17.354 9.162-27.48-5.057-10.106-17.326-14.234-27.48-9.162-18.268 9.141-46.092 3.707-55.226-6.991-1.836-2.142-7.399-8.67 4.635-25.482 6.591-9.191 4.47-21.981-4.728-28.566-3.613-2.586-7.785-3.821-11.898-3.821zM406.28 650.27c-4.649 0-9.32 1.563-13.155 4.799-8.662 7.27-9.791 20.189-2.507 28.837 10.484 12.49 25.974 37.843 27.752 52.969 0.642 5.528-3.099 8.541-4.742 9.57-1.621 1.021-5.849 3.063-10.462 0.186-28.245-17.761-71.145-38.943-115.044-38.943-11.305 0-20.475 9.177-20.475 20.475 0 11.305 9.177 20.475 20.475 20.475 35.943 0 73.858 20.468 93.262 32.658 16.647 10.441 37.378 10.369 54.125-0.229 16.818-10.627 25.832-29.395 23.538-48.976-3.299-27.959-25.695-60.968-37.071-74.515-4.071-4.813-9.862-7.306-15.697-7.306zM162.429 595.441c-18.469-0.007-36.928 7.691-66.331 23.096-31.574 16.533-60.039 50.37-71.845 75.25-6.52 13.74-6.62 29.558-0.314 43.391 6.263 13.726 18.183 23.924 32.702 27.959 80.099 22.34 140.475-54.869 142.989-58.159 6.891-8.977 5.192-21.826-3.786-28.709-8.956-6.87-21.789-5.192-28.681 3.749-0.621 0.786-46.234 58.604-99.531 43.663-3.899-1.079-5.713-3.936-6.441-5.528-0.75-1.65-1.75-4.999 0.071-8.827 8.591-18.118 31.616-44.886 53.833-56.526 42.285-22.152 47.841-21.224 67.195-13.269 10.456 4.292 22.425-0.714 26.709-11.177 4.292-10.462-0.707-22.425-11.177-26.709-13.348-5.47-24.374-8.206-35.392-8.206zM336.332 614.729c1.728-12.255 8.498-19.86 21.554-19.481 12.305 0.357 19.354 8.291 19.496 20.039 0.157 12.798-7.885 21.032-20.496 20.995-12.555-0.036-19.718-7.991-20.553-21.554zM667.754 493.92c-11.305 0-20.475 9.177-20.475 20.475v18.469c0 11.305 9.177 20.475 20.475 20.475 11.305 0 20.475-9.177 20.475-20.475v-18.469c0.007-11.312-9.17-20.475-20.475-20.475zM672.49 447.554h-49.377c-1.292 0-2.578 0.121-3.849 0.371-17.504 3.349-29.723 16.889-29.723 32.958v48.34c0 11.305 9.177 20.475 20.475 20.475 11.305 0 20.475-9.177 20.475-20.475v-40.715h42.007c11.305 0 20.475-9.177 20.475-20.475 0-11.312-9.185-20.481-20.481-20.481zM663.129 546.152c31.679 0 91.405 128.384 91.405 128.384s5.335 22.31-21.976 53.955c-13.334 15.447-38.442 5.449-37.572-14.94 0.536-12.569 2.886-25.195 8.92-34.065 16.876-24.817 38.729-24.438 38.729-24.438zM663.111 525.675c-11.305 0-20.475 9.177-20.475 20.475 0 10.834 8.406 19.695 19.054 20.425 10.156 4.585 32.073 36.122 53.513 75.471-9.185 4.857-19.332 12.819-28.237 25.924-7.462 10.962-11.648 26.003-12.448 44.698-0.779 18.139 9.591 34.171 26.401 40.829s35.301 2.071 47.134-11.662c33.194-38.464 27.173-68.751 26.381-72.081-0.314-1.329-0.771-2.628-1.35-3.878-29.758-63.94-72.994-140.205-109.973-140.205zM715.637 715.246c0.407-15.19 3.442-21.654 5.192-24.232 4.385-6.441 9.062-10.198 12.984-12.398 0.264 0.55 0.521 1.092 0.779 1.65-0.121 3.521-1.607 16.39-17.547 34.85zM838.787 622.317h-0.257c-11.305 0.142-20.361 9.42-20.231 20.725 0.729 60.568-97.282 72.529-98.275 72.636-11.219 1.292-19.297 11.412-18.033 22.646 1.271 11.219 11.327 19.332 22.595 18.047 1.329-0.142 32.958-3.786 64.79-18.268 46.213-21.010 70.365-54.046 69.866-95.563-0.136-11.219-9.277-20.224-20.454-20.224zM837.836 648.662c-7.32 0-14.397 3.936-18.089 10.841-5.335 9.969-1.563 22.367 8.398 27.694 15.069 8.035 92.27 47.006 132.99 23.261 9.769-5.706 13.076-18.233 7.391-28.001-5.706-9.769-18.247-13.055-28.001-7.391-13.711 8.006-59.212-5.935-93.076-23.996-3.057-1.628-6.363-2.407-9.612-2.407zM813.978 411.174c-60.303 0-117.921 19.533-151.751 39.128-9.791 5.663-13.126 18.183-7.462 27.974s18.175 13.126 27.974 7.462c59.246-34.309 204.379-69.68 274.62 40.158 6.099 9.535 18.754 12.305 28.289 6.206 9.52-6.091 12.305-18.754 6.206-28.289-44.713-69.909-112.872-92.641-177.883-92.641zM667.006 511.672c-10.834 0-19.695 8.406-20.425 19.054-1.064 0.879-3.857 2.321-8.070 2.321-4.207 0-7.012-1.442-8.077-2.321-0.729-10.648-9.606-19.054-20.425-19.054-11.305 0-20.475 9.177-20.475 20.475 0 23.467 21.519 41.857 48.976 41.857 27.46 0 48.97-18.39 48.97-41.857 0.007-11.305-9.162-20.475-20.475-20.475zM746.004 584.93c1.2-8.498 5.899-13.784 14.947-13.511 8.541 0.242 13.419 5.756 13.526 13.89 0.114 8.877-5.47 14.59-14.211 14.569-8.727-0.021-13.69-5.535-14.261-14.947z" />
<glyph unicode="&#xe90d;" glyph-name="farmer-long-hair" d="M512.504-85.3c-20.477 0-40.954 5.121-59.389 15.356l-358.383 196.598c-38.912 21.507-63.483 62.46-63.483 107.517v385.005c0 45.055 24.577 86.010 63.483 107.517l358.383 196.598c36.862 20.477 80.888 20.477 117.751 0l358.383-196.598c38.912-21.507 63.483-62.46 63.483-107.517v-385.005c0-45.055-24.577-86.010-63.483-107.517l-358.383-196.598c-17.406-10.242-37.885-15.364-58.361-15.364zM512.504 897.692c-13.314 0-26.62-3.071-39.934-10.242l-358.383-196.598c-26.62-14.335-41.984-41.984-41.984-71.675v-385.005c0-29.691 16.385-57.339 41.984-71.675l358.383-196.598c24.577-13.314 54.269-13.314 78.846 0l358.383 196.598c26.62 14.335 43.006 41.984 43.006 71.675v385.005c0 29.691-16.385 57.339-43.006 71.675l-358.383 196.598c-12.292 7.171-25.599 10.242-38.912 10.242zM809.416 488.326h-614.37c-11.264 0-20.477 9.214-20.477 20.477s9.214 20.477 20.477 20.477h614.37c11.264 0 20.477-9.214 20.477-20.477 0.007-11.264-9.214-20.477-20.477-20.477zM331.263 488.562c-10.242 0-18.428 7.171-20.477 17.406-17.406 108.537 34.812 184.311 95.224 201.718 46.076 13.314 87.040 0 106.487-7.171 18.428 8.193 60.411 21.507 106.487 7.171 60.411-18.428 112.638-92.151 96.253-198.647-2.050-11.264-12.285-18.428-23.549-17.406-11.264 2.050-18.428 12.285-17.406 23.549 12.285 82.938-25.599 140.279-67.583 153.592-43.006 13.314-83.968-8.193-83.968-9.214-6.143-3.071-13.314-3.071-19.457 0 0 0-40.954 21.507-83.968 9.214-41.984-12.285-79.869-71.675-66.553-156.665 2.050-11.264-6.143-21.507-17.406-23.549h-4.086zM728.552 24.576h-4.092c-11.264 2.050-18.428 13.314-15.356 24.577 18.428 84.988-28.67 144.379-81.918 157.684-15.356 4.092-22.527-3.071-39.934-33.79-14.335-24.577-33.79-58.368-73.725-58.368s-59.389 31.741-74.746 58.368c-18.428 30.72-25.599 37.885-40.954 33.79-53.247-13.314-98.303-71.675-81.918-156.665 2.050-11.264-5.121-21.507-16.385-23.549-11.264-2.050-21.507 5.121-23.549 16.385-15.356 80.888 18.428 180.214 111.609 203.766 48.126 12.285 69.625-25.599 86.010-52.219 14.335-23.549 23.549-37.885 39.934-37.885 15.356 0 23.549 12.285 38.912 37.885 15.356 27.648 36.862 64.51 84.988 52.219 71.675-18.428 135.165-96.253 111.609-205.814-2.057-9.228-11.271-16.392-20.485-16.392zM370.894-16.438h-3.071c-11.264 2.050-18.428 12.285-16.385 23.549l37.892 225.269c2.050 11.264 12.285 18.428 23.549 16.385 11.264-2.050 18.428-12.285 16.385-23.549l-38.912-224.245c-1.022-10.242-9.214-17.413-19.457-17.413zM656.169-16.438c-10.242 0-18.428 7.171-20.477 17.406l-38.912 224.245c-2.050 11.264 5.121 21.507 16.385 23.549 11.264 2.050 21.507-5.121 23.549-16.385l39.942-225.269c2.050-11.264-5.121-21.507-16.385-23.549-2.050-0.007-3.071-0.007-4.099-0.007zM461.119 436.945c0-11.314-9.171-20.485-20.477-20.485-11.314 0-20.477 9.171-20.477 20.485 0 11.307 9.163 20.477 20.477 20.477 11.307 0 20.477-9.171 20.477-20.477zM604.84 436.945c0-11.314-9.163-20.485-20.477-20.485-11.307 0-20.477 9.171-20.477 20.485 0 11.307 9.171 20.477 20.477 20.477 11.314 0 20.477-9.171 20.477-20.477zM512.501 293.314c-61.441 0-66.553 34.812-66.553 38.912-1.022 11.264 7.171 21.507 18.428 22.527 10.242 1.022 19.457-5.121 21.507-15.356 1.022-1.022 8.193-5.121 26.62-5.121s24.577 4.092 26.62 5.121c2.050 9.214 11.264 16.385 21.507 15.356 11.264-1.022 19.457-11.264 18.428-22.527 0-4.099-5.114-38.912-66.553-38.912zM509.418 216.531c-116.73 0-211.957 95.231-211.957 211.957 0 11.264 9.214 20.477 20.477 20.477s20.477-9.214 20.477-20.477c0-94.203 76.796-172.020 170.999-172.020s172.020 76.796 172.020 172.020c0 11.264 9.214 20.477 20.477 20.477s20.477-9.214 20.477-20.477c0.015-116.73-95.217-211.957-212.963-211.957zM695.101 369.38c-48.126 0-61.441 40.954-72.704 71.675-9.214 26.62-15.356 44.026-32.77 47.105-11.264 2.050-18.428 13.314-15.356 24.577 2.050 11.264 13.314 18.428 24.577 15.356 39.934-8.193 52.219-45.055 62.46-74.746 11.264-34.812 17.406-45.055 34.812-44.026 11.264 0 20.477-8.193 21.507-19.457 1.022-11.264-8.193-20.477-19.457-21.507-1.022 1.022-2.050 1.022-3.071 1.022zM326.824 369.399c-9.214 0-18.428 6.143-20.477 16.385-2.050 11.264 5.121 21.507 15.356 24.577 16.385 3.071 23.549 20.477 32.77 47.105 10.242 30.72 24.577 73.725 75.774 71.675 11.264 0 20.477-10.242 19.457-21.507 0-11.264-10.242-20.477-21.507-19.457-17.406 1.022-23.549-9.214-34.812-44.026-10.242-29.691-22.527-65.533-62.46-74.746-1.029 1.014-2.050-0.007-4.099-0.007zM341.964 199.2c-4.092 0-8.193 1.022-11.264 3.071-66.553 43.006-103.418 95.224-110.586 153.592-11.264 90.11 55.29 161.784 57.339 164.856 8.193 8.193 20.477 8.193 28.67 1.022 8.193-8.193 8.193-20.477 1.022-28.67-1.022-1.022-55.29-61.441-47.105-132.086 6.143-46.076 36.862-87.040 92.151-123.901 9.214-6.143 12.285-18.428 6.143-28.67-3.057-6.143-9.2-9.214-16.371-9.214zM676.871 199.205c-7.171 0-13.314 3.071-17.406 9.214-6.143 9.214-3.071 22.527 6.143 28.67 55.29 35.842 87.040 77.819 92.151 123.901 9.214 70.654-46.076 131.066-47.105 132.086-8.193 8.193-7.171 21.507 1.022 28.67 8.193 8.193 21.507 7.171 28.67-1.022 3.071-3.071 68.604-74.746 57.339-164.856-7.171-58.368-44.026-110.586-110.586-153.592-3.064-2.050-7.156-3.071-10.228-3.071z" />
</font></defs></svg>