<?xml version="1.0" standalone="no"?>
<!DOCTYPE svg PUBLIC "-//W3C//DTD SVG 20010904//EN"
 "http://www.w3.org/TR/2001/REC-SVG-20010904/DTD/svg10.dtd">
<svg version="1.0" xmlns="http://www.w3.org/2000/svg"
 width="512.000000pt" height="512.000000pt" viewBox="0 0 512.000000 512.000000"
 preserveAspectRatio="xMidYMid meet">
<metadata>
Created by potrace 1.14, written by Peter Selinger 2001-2017
</metadata>
<g transform="translate(0.000000,512.000000) scale(0.100000,-0.100000)"
fill="#000000" stroke="none">
<path d="M4663 4435 c-26 -39 -104 -100 -184 -143 -220 -118 -652 -217 -1425
-327 -99 -14 -189 -27 -200 -29 -12 -2 -45 -7 -75 -10 -30 -3 -65 -8 -79 -10
-14 -3 -74 -12 -135 -21 -366 -55 -670 -109 -785 -141 -145 -41 -358 -127
-440 -179 -22 -14 -42 -25 -45 -25 -11 0 -152 -98 -226 -158 -312 -250 -546
-618 -623 -978 -21 -98 -15 -307 11 -394 32 -104 81 -214 137 -307 58 -96 186
-263 201 -262 6 0 30 50 54 112 89 230 217 461 363 655 128 171 225 274 441
467 11 9 118 91 187 143 67 50 252 158 376 221 327 164 680 274 1060 331 156
23 343 36 279 19 -180 -49 -237 -66 -360 -105 -77 -25 -153 -52 -170 -59 -16
-7 -75 -32 -129 -55 -123 -52 -338 -161 -421 -214 -128 -82 -171 -112 -252
-173 -482 -363 -845 -874 -1173 -1648 -95 -224 -230 -561 -230 -574 0 -5 14
-13 32 -16 18 -4 39 -11 48 -16 33 -18 312 -110 318 -105 3 3 49 111 102 238
111 267 89 247 230 207 71 -19 107 -23 215 -22 72 0 164 6 205 12 41 7 93 15
115 18 71 9 262 62 362 99 169 63 408 192 544 295 158 120 351 300 470 439 35
41 67 77 70 80 39 35 369 513 369 535 0 3 10 22 23 43 49 77 247 460 247 476
0 2 16 39 35 80 19 42 35 78 35 81 0 2 11 28 24 57 61 136 182 473 252 703 79
262 186 696 171 695 -1 0 -12 -16 -24 -35z"/>
</g>
</svg>
